%!PS-Adobe-3.0 EPSF-3.0
%%Creator: (MATLAB, The Mathworks, Inc. Version 9.10.0.1739362 \(R2021a\) Update 5. Operating System: Windows 10)
%%Title: (C:/Users/rkurnia/Documents/Test-VirtualBox/NEMOH_LHEEA/output/Journee Hydro paper/SOFTWIND/figures/QTFM_Pitch_beta030_diag.eps)
%%CreationDate: 2022-10-27T10:24:32
%%Pages: (atend)
%%BoundingBox:     0     0   420   315
%%LanguageLevel: 3
%%EndComments
%%BeginProlog
%%BeginResource: procset (Apache XML Graphics Std ProcSet) 1.2 0
%%Version: 1.2 0
%%Copyright: (Copyright 2001-2003,2010 The Apache Software Foundation. License terms: http://www.apache.org/licenses/LICENSE-2.0)
/bd{bind def}bind def
/ld{load def}bd
/GR/grestore ld
/GS/gsave ld
/RM/rmoveto ld
/C/curveto ld
/t/show ld
/L/lineto ld
/ML/setmiterlimit ld
/CT/concat ld
/f/fill ld
/N/newpath ld
/S/stroke ld
/CC/setcmykcolor ld
/A/ashow ld
/cp/closepath ld
/RC/setrgbcolor ld
/LJ/setlinejoin ld
/GC/setgray ld
/LW/setlinewidth ld
/M/moveto ld
/re {4 2 roll M
1 index 0 rlineto
0 exch rlineto
neg 0 rlineto
cp } bd
/_ctm matrix def
/_tm matrix def
/BT { _ctm currentmatrix pop matrix _tm copy pop 0 0 moveto } bd
/ET { _ctm setmatrix } bd
/iTm { _ctm setmatrix _tm concat } bd
/Tm { _tm astore pop iTm 0 0 moveto } bd
/ux 0.0 def
/uy 0.0 def
/F {
  /Tp exch def
  /Tf exch def
  Tf findfont Tp scalefont setfont
  /cf Tf def  /cs Tp def
} bd
/ULS {currentpoint /uy exch def /ux exch def} bd
/ULE {
  /Tcx currentpoint pop def
  gsave
  newpath
  cf findfont cs scalefont dup
  /FontMatrix get 0 get /Ts exch def /FontInfo get dup
  /UnderlinePosition get Ts mul /To exch def
  /UnderlineThickness get Ts mul /Tt exch def
  ux uy To add moveto  Tcx uy To add lineto
  Tt setlinewidth stroke
  grestore
} bd
/OLE {
  /Tcx currentpoint pop def
  gsave
  newpath
  cf findfont cs scalefont dup
  /FontMatrix get 0 get /Ts exch def /FontInfo get dup
  /UnderlinePosition get Ts mul /To exch def
  /UnderlineThickness get Ts mul /Tt exch def
  ux uy To add cs add moveto Tcx uy To add cs add lineto
  Tt setlinewidth stroke
  grestore
} bd
/SOE {
  /Tcx currentpoint pop def
  gsave
  newpath
  cf findfont cs scalefont dup
  /FontMatrix get 0 get /Ts exch def /FontInfo get dup
  /UnderlinePosition get Ts mul /To exch def
  /UnderlineThickness get Ts mul /Tt exch def
  ux uy To add cs 10 mul 26 idiv add moveto Tcx uy To add cs 10 mul 26 idiv add lineto
  Tt setlinewidth stroke
  grestore
} bd
/QT {
/Y22 exch store
/X22 exch store
/Y21 exch store
/X21 exch store
currentpoint
/Y21 load 2 mul add 3 div exch
/X21 load 2 mul add 3 div exch
/X21 load 2 mul /X22 load add 3 div
/Y21 load 2 mul /Y22 load add 3 div
/X22 load /Y22 load curveto
} bd
/SSPD {
dup length /d exch dict def
{
/v exch def
/k exch def
currentpagedevice k known {
/cpdv currentpagedevice k get def
v cpdv ne {
/upd false def
/nullv v type /nulltype eq def
/nullcpdv cpdv type /nulltype eq def
nullv nullcpdv or
{
/upd true def
} {
/sametype v type cpdv type eq def
sametype {
v type /arraytype eq {
/vlen v length def
/cpdvlen cpdv length def
vlen cpdvlen eq {
0 1 vlen 1 sub {
/i exch def
/obj v i get def
/cpdobj cpdv i get def
obj cpdobj ne {
/upd true def
exit
} if
} for
} {
/upd true def
} ifelse
} {
v type /dicttype eq {
v {
/dv exch def
/dk exch def
/cpddv cpdv dk get def
dv cpddv ne {
/upd true def
exit
} if
} forall
} {
/upd true def
} ifelse
} ifelse
} if
} ifelse
upd true eq {
d k v put
} if
} if
} if
} forall
d length 0 gt {
d setpagedevice
} if
} bd
/RE { % /NewFontName [NewEncodingArray] /FontName RE -
  findfont dup length dict begin
  {
    1 index /FID ne
    {def} {pop pop} ifelse
  } forall
  /Encoding exch def
  /FontName 1 index def
  currentdict definefont pop
  end
} bind def
%%EndResource
%%BeginResource: procset (Apache XML Graphics EPS ProcSet) 1.0 0
%%Version: 1.0 0
%%Copyright: (Copyright 2002-2003 The Apache Software Foundation. License terms: http://www.apache.org/licenses/LICENSE-2.0)
/BeginEPSF { %def
/b4_Inc_state save def         % Save state for cleanup
/dict_count countdictstack def % Count objects on dict stack
/op_count count 1 sub def      % Count objects on operand stack
userdict begin                 % Push userdict on dict stack
/showpage { } def              % Redefine showpage, { } = null proc
0 setgray 0 setlinecap         % Prepare graphics state
1 setlinewidth 0 setlinejoin
10 setmiterlimit [ ] 0 setdash newpath
/languagelevel where           % If level not equal to 1 then
{pop languagelevel             % set strokeadjust and
1 ne                           % overprint to their defaults.
{false setstrokeadjust false setoverprint
} if
} if
} bd
/EndEPSF { %def
count op_count sub {pop} repeat            % Clean up stacks
countdictstack dict_count sub {end} repeat
b4_Inc_state restore
} bd
%%EndResource
%FOPBeginFontDict
%%IncludeResource: font Courier-Oblique
%%IncludeResource: font Courier-BoldOblique
%%IncludeResource: font Courier-Bold
%%IncludeResource: font ZapfDingbats
%%IncludeResource: font Symbol
%%IncludeResource: font Helvetica
%%IncludeResource: font Helvetica-Oblique
%%IncludeResource: font Helvetica-Bold
%%IncludeResource: font Helvetica-BoldOblique
%%IncludeResource: font Times-Roman
%%IncludeResource: font Times-Italic
%%IncludeResource: font Times-Bold
%%IncludeResource: font Times-BoldItalic
%%IncludeResource: font Courier
%FOPEndFontDict
%%BeginResource: encoding WinAnsiEncoding
/WinAnsiEncoding [
/.notdef /.notdef /.notdef /.notdef /.notdef
/.notdef /.notdef /.notdef /.notdef /.notdef
/.notdef /.notdef /.notdef /.notdef /.notdef
/.notdef /.notdef /.notdef /.notdef /.notdef
/.notdef /.notdef /.notdef /.notdef /.notdef
/.notdef /.notdef /.notdef /.notdef /.notdef
/.notdef /.notdef /space /exclam /quotedbl
/numbersign /dollar /percent /ampersand /quotesingle
/parenleft /parenright /asterisk /plus /comma
/hyphen /period /slash /zero /one
/two /three /four /five /six
/seven /eight /nine /colon /semicolon
/less /equal /greater /question /at
/A /B /C /D /E
/F /G /H /I /J
/K /L /M /N /O
/P /Q /R /S /T
/U /V /W /X /Y
/Z /bracketleft /backslash /bracketright /asciicircum
/underscore /quoteleft /a /b /c
/d /e /f /g /h
/i /j /k /l /m
/n /o /p /q /r
/s /t /u /v /w
/x /y /z /braceleft /bar
/braceright /asciitilde /bullet /Euro /bullet
/quotesinglbase /florin /quotedblbase /ellipsis /dagger
/daggerdbl /circumflex /perthousand /Scaron /guilsinglleft
/OE /bullet /Zcaron /bullet /bullet
/quoteleft /quoteright /quotedblleft /quotedblright /bullet
/endash /emdash /asciitilde /trademark /scaron
/guilsinglright /oe /bullet /zcaron /Ydieresis
/space /exclamdown /cent /sterling /currency
/yen /brokenbar /section /dieresis /copyright
/ordfeminine /guillemotleft /logicalnot /sfthyphen /registered
/macron /degree /plusminus /twosuperior /threesuperior
/acute /mu /paragraph /middot /cedilla
/onesuperior /ordmasculine /guillemotright /onequarter /onehalf
/threequarters /questiondown /Agrave /Aacute /Acircumflex
/Atilde /Adieresis /Aring /AE /Ccedilla
/Egrave /Eacute /Ecircumflex /Edieresis /Igrave
/Iacute /Icircumflex /Idieresis /Eth /Ntilde
/Ograve /Oacute /Ocircumflex /Otilde /Odieresis
/multiply /Oslash /Ugrave /Uacute /Ucircumflex
/Udieresis /Yacute /Thorn /germandbls /agrave
/aacute /acircumflex /atilde /adieresis /aring
/ae /ccedilla /egrave /eacute /ecircumflex
/edieresis /igrave /iacute /icircumflex /idieresis
/eth /ntilde /ograve /oacute /ocircumflex
/otilde /odieresis /divide /oslash /ugrave
/uacute /ucircumflex /udieresis /yacute /thorn
/ydieresis
] def
%%EndResource
%FOPBeginFontReencode
/Courier-Oblique findfont
dup length dict begin
  {1 index /FID ne {def} {pop pop} ifelse} forall
  /Encoding WinAnsiEncoding def
  currentdict
end
/Courier-Oblique exch definefont pop
/Courier-BoldOblique findfont
dup length dict begin
  {1 index /FID ne {def} {pop pop} ifelse} forall
  /Encoding WinAnsiEncoding def
  currentdict
end
/Courier-BoldOblique exch definefont pop
/Courier-Bold findfont
dup length dict begin
  {1 index /FID ne {def} {pop pop} ifelse} forall
  /Encoding WinAnsiEncoding def
  currentdict
end
/Courier-Bold exch definefont pop
/Helvetica findfont
dup length dict begin
  {1 index /FID ne {def} {pop pop} ifelse} forall
  /Encoding WinAnsiEncoding def
  currentdict
end
/Helvetica exch definefont pop
/Helvetica-Oblique findfont
dup length dict begin
  {1 index /FID ne {def} {pop pop} ifelse} forall
  /Encoding WinAnsiEncoding def
  currentdict
end
/Helvetica-Oblique exch definefont pop
/Helvetica-Bold findfont
dup length dict begin
  {1 index /FID ne {def} {pop pop} ifelse} forall
  /Encoding WinAnsiEncoding def
  currentdict
end
/Helvetica-Bold exch definefont pop
/Helvetica-BoldOblique findfont
dup length dict begin
  {1 index /FID ne {def} {pop pop} ifelse} forall
  /Encoding WinAnsiEncoding def
  currentdict
end
/Helvetica-BoldOblique exch definefont pop
/Times-Roman findfont
dup length dict begin
  {1 index /FID ne {def} {pop pop} ifelse} forall
  /Encoding WinAnsiEncoding def
  currentdict
end
/Times-Roman exch definefont pop
/Times-Italic findfont
dup length dict begin
  {1 index /FID ne {def} {pop pop} ifelse} forall
  /Encoding WinAnsiEncoding def
  currentdict
end
/Times-Italic exch definefont pop
/Times-Bold findfont
dup length dict begin
  {1 index /FID ne {def} {pop pop} ifelse} forall
  /Encoding WinAnsiEncoding def
  currentdict
end
/Times-Bold exch definefont pop
/Times-BoldItalic findfont
dup length dict begin
  {1 index /FID ne {def} {pop pop} ifelse} forall
  /Encoding WinAnsiEncoding def
  currentdict
end
/Times-BoldItalic exch definefont pop
/Courier findfont
dup length dict begin
  {1 index /FID ne {def} {pop pop} ifelse} forall
  /Encoding WinAnsiEncoding def
  currentdict
end
/Courier exch definefont pop
%FOPEndFontReencode
%%EndProlog
%%Page: 1 1
%%PageBoundingBox: 0 0 420 315
%%BeginPageSetup
[1 0 0 -1 0 315] CT
%%EndPageSetup
GS
[0.6 0 0 0.6 0 0] CT
1 GC
N
0 0 700 525 re
f
GR
GS
[0.6 0 0 0.6 0 0] CT
1 GC
N
0 0 700 525 re
f
GR
GS
[0.6 0 0 0.6 0 0] CT
1 GC
N
99 188 M
634 188 L
634 53 L
99 53 L
cp
f
GR
GS
[0.6 0 0 0.6 0 0] CT
0.149 GC
2 setlinecap
1 LJ
0.833 LW
N
99 188 M
634 188 L
S
GR
GS
[0.6 0 0 0.6 0 0] CT
0.149 GC
2 setlinecap
1 LJ
0.833 LW
N
99 53 M
634 53 L
S
GR
GS
[0.6 0 0 0.6 0 0] CT
0.149 GC
2 setlinecap
1 LJ
0.833 LW
N
174.981 188 M
174.981 182.65 L
S
GR
GS
[0.6 0 0 0.6 0 0] CT
0.149 GC
2 setlinecap
1 LJ
0.833 LW
N
261.917 188 M
261.917 182.65 L
S
GR
GS
[0.6 0 0 0.6 0 0] CT
0.149 GC
2 setlinecap
1 LJ
0.833 LW
N
348.852 188 M
348.852 182.65 L
S
GR
GS
[0.6 0 0 0.6 0 0] CT
0.149 GC
2 setlinecap
1 LJ
0.833 LW
N
435.787 188 M
435.787 182.65 L
S
GR
GS
[0.6 0 0 0.6 0 0] CT
0.149 GC
2 setlinecap
1 LJ
0.833 LW
N
522.723 188 M
522.723 182.65 L
S
GR
GS
[0.6 0 0 0.6 0 0] CT
0.149 GC
2 setlinecap
1 LJ
0.833 LW
N
609.658 188 M
609.658 182.65 L
S
GR
GS
[0.6 0 0 0.6 0 0] CT
0.149 GC
2 setlinecap
1 LJ
0.833 LW
N
174.981 53 M
174.981 58.35 L
S
GR
GS
[0.6 0 0 0.6 0 0] CT
0.149 GC
2 setlinecap
1 LJ
0.833 LW
N
261.917 53 M
261.917 58.35 L
S
GR
GS
[0.6 0 0 0.6 0 0] CT
0.149 GC
2 setlinecap
1 LJ
0.833 LW
N
348.852 53 M
348.852 58.35 L
S
GR
GS
[0.6 0 0 0.6 0 0] CT
0.149 GC
2 setlinecap
1 LJ
0.833 LW
N
435.787 53 M
435.787 58.35 L
S
GR
GS
[0.6 0 0 0.6 0 0] CT
0.149 GC
2 setlinecap
1 LJ
0.833 LW
N
522.723 53 M
522.723 58.35 L
S
GR
GS
[0.6 0 0 0.6 0 0] CT
0.149 GC
2 setlinecap
1 LJ
0.833 LW
N
609.658 53 M
609.658 58.35 L
S
GR
GS
[0.6 0 0 0.6 104.98889 117.8] CT
0.149 GC
/Helvetica-Bold 25 F
GS
[1 0 0 1 0 0] CT
-17.5 26 moveto 
1 -1 scale
(0.5) t 
GR
GR
GS
[0.6 0 0 0.6 157.15009 117.8] CT
0.149 GC
/Helvetica-Bold 25 F
GS
[1 0 0 1 0 0] CT
-7 26 moveto 
1 -1 scale
(1) t 
GR
GR
GS
[0.6 0 0 0.6 209.31129 117.8] CT
0.149 GC
/Helvetica-Bold 25 F
GS
[1 0 0 1 0 0] CT
-17.5 26 moveto 
1 -1 scale
(1.5) t 
GR
GR
GS
[0.6 0 0 0.6 261.47247 117.8] CT
0.149 GC
/Helvetica-Bold 25 F
GS
[1 0 0 1 0 0] CT
-7 26 moveto 
1 -1 scale
(2) t 
GR
GR
GS
[0.6 0 0 0.6 313.63367 117.8] CT
0.149 GC
/Helvetica-Bold 25 F
GS
[1 0 0 1 0 0] CT
-17.5 26 moveto 
1 -1 scale
(2.5) t 
GR
GR
GS
[0.6 0 0 0.6 365.79485 117.8] CT
0.149 GC
/Helvetica-Bold 25 F
GS
[1 0 0 1 0 0] CT
-7 26 moveto 
1 -1 scale
(3) t 
GR
GR
GS
[0.6 0 0 0.6 219.90015 138] CT
0.149 GC
N
-47.631 23.412 M
-49.209 23.412 -49.92 22.248 QT
-50.631 21.084 -50.631 19.412 QT
-50.631 18.303 -50.428 17.241 QT
-50.225 16.178 -49.826 15.092 QT
-49.428 14.006 -48.904 13.053 QT
-48.381 12.1 -47.74 11.209 QT
-47.615 11.022 -47.412 11.022 QT
-47.24 11.022 -47.131 11.131 QT
-47.021 11.241 -47.021 11.397 QT
-47.021 11.553 -47.1 11.662 QT
-49.646 15.178 -49.646 18.147 QT
-49.646 19.428 -49.053 20.358 QT
-48.459 21.287 -47.24 21.287 QT
-46.193 21.287 -45.295 20.67 QT
-44.396 20.053 -43.74 19.1 QT
-43.74 18.6 -43.576 17.561 QT
-43.412 16.522 -43.045 15.709 QT
-42.678 14.897 -42.178 14.897 QT
-41.537 14.897 -41.537 15.647 QT
-41.537 16.084 -41.717 16.748 QT
-41.896 17.412 -42.123 17.983 QT
-42.35 18.553 -42.678 19.287 QT
-42.35 21.287 -40.678 21.287 QT
-39.709 21.287 -38.732 20.725 QT
-37.756 20.162 -37.006 19.248 QT
-36.256 18.334 -35.826 17.287 QT
-35.396 16.241 -35.396 15.287 QT
-35.396 14.444 -35.662 13.975 QT
-35.928 13.506 -36.365 12.983 QT
-36.803 12.459 -36.803 12.147 QT
-36.803 11.6 -36.334 11.147 QT
-35.865 10.694 -35.334 10.694 QT
-34.662 10.694 -34.373 11.319 QT
-34.084 11.944 -34.084 12.741 QT
-34.084 14.022 -34.592 15.975 QT
-35.1 17.928 -35.756 19.225 QT
-36.662 20.991 -38.021 22.201 QT
-39.381 23.412 -41.084 23.412 QT
-42.162 23.412 -42.826 22.764 QT
-43.49 22.116 -43.678 20.991 QT
-44.459 22.1 -45.459 22.756 QT
-46.459 23.412 -47.631 23.412 QT
cp
f
GR
GS
[0.6 0 0 0.6 219.90015 138] CT
0.149 GC
N
-29.605 30.1 M
-29.605 2.1 L
-25.777 2.1 L
-25.777 3.225 L
-28.48 3.225 L
-28.48 28.975 L
-25.777 28.975 L
-25.777 30.1 L
-29.605 30.1 L
cp
f
GR
GS
[0.6 0 0 0.6 219.90015 138] CT
0.149 GC
N
-23.122 22.616 M
-23.122 22.459 -23.091 22.381 QT
-20.997 14.022 L
-20.794 13.241 -20.794 12.647 QT
-20.794 11.444 -21.607 11.444 QT
-22.482 11.444 -22.911 12.491 QT
-23.341 13.537 -23.732 15.147 QT
-23.732 15.225 -23.817 15.272 QT
-23.903 15.319 -23.966 15.319 QT
-24.294 15.319 L
-24.388 15.319 -24.458 15.217 QT
-24.528 15.116 -24.528 15.037 QT
-24.232 13.819 -23.95 12.967 QT
-23.669 12.116 -23.075 11.42 QT
-22.482 10.725 -21.591 10.725 QT
-20.622 10.725 -19.888 11.287 QT
-19.153 11.85 -18.982 12.756 QT
-18.263 11.834 -17.357 11.28 QT
-16.45 10.725 -15.372 10.725 QT
-14.482 10.725 -13.802 11.248 QT
-13.122 11.772 -13.122 12.647 QT
-13.122 13.366 -13.567 13.889 QT
-14.013 14.412 -14.747 14.412 QT
-15.2 14.412 -15.505 14.131 QT
-15.81 13.85 -15.81 13.412 QT
-15.81 12.787 -15.364 12.303 QT
-14.919 11.819 -14.325 11.819 QT
-14.778 11.444 -15.419 11.444 QT
-16.622 11.444 -17.513 12.303 QT
-18.403 13.162 -19.107 14.475 QT
-21.107 22.491 L
-21.2 22.866 -21.536 23.139 QT
-21.872 23.412 -22.278 23.412 QT
-22.622 23.412 -22.872 23.194 QT
-23.122 22.975 -23.122 22.616 QT
cp
f
GR
GS
[0.6 0 0 0.6 219.90015 138] CT
0.149 GC
N
-7.233 23.412 M
-8.998 23.412 -10.022 22.076 QT
-11.045 20.741 -11.045 18.928 QT
-11.045 17.131 -10.115 15.209 QT
-9.186 13.287 -7.608 12.006 QT
-6.03 10.725 -4.201 10.725 QT
-3.373 10.725 -2.717 11.178 QT
-2.061 11.631 -1.686 12.412 QT
-1.373 11.287 -0.451 11.287 QT
-0.108 11.287 0.135 11.498 QT
0.377 11.709 0.377 12.069 QT
0.377 12.147 0.369 12.186 QT
0.361 12.225 0.345 12.287 QT
-1.608 20.1 L
-1.795 20.944 -1.795 21.475 QT
-1.795 22.678 -0.998 22.678 QT
-0.123 22.678 0.338 21.561 QT
0.799 20.444 1.111 18.991 QT
1.174 18.819 1.33 18.819 QT
1.674 18.819 L
1.783 18.819 1.853 18.912 QT
1.924 19.006 1.924 19.1 QT
1.424 21.053 0.845 22.233 QT
0.267 23.412 -1.045 23.412 QT
-1.983 23.412 -2.709 22.858 QT
-3.436 22.303 -3.623 21.397 QT
-5.42 23.412 -7.233 23.412 QT
cp
-7.217 22.678 M
-6.201 22.678 -5.248 21.92 QT
-4.295 21.162 -3.623 20.131 QT
-3.592 20.1 -3.592 20.053 QT
-2.092 13.959 L
-2.061 13.881 L
-2.217 12.881 -2.772 12.162 QT
-3.326 11.444 -4.28 11.444 QT
-5.217 11.444 -6.03 12.217 QT
-6.842 12.991 -7.405 14.053 QT
-7.951 15.162 -8.451 17.123 QT
-8.951 19.084 -8.951 20.162 QT
-8.951 21.131 -8.53 21.905 QT
-8.108 22.678 -7.217 22.678 QT
cp
f
GR
GS
[0.6 0 0 0.6 219.90015 138] CT
0.149 GC
N
7.304 23.412 M
5.538 23.412 4.514 22.076 QT
3.491 20.741 3.491 18.928 QT
3.491 17.131 4.421 15.209 QT
5.35 13.287 6.929 12.006 QT
8.507 10.725 10.335 10.725 QT
11.147 10.725 11.811 11.186 QT
12.475 11.647 12.85 12.412 QT
14.413 6.162 L
14.522 5.678 14.554 5.412 QT
14.554 4.959 12.741 4.959 QT
12.444 4.959 12.444 4.584 QT
12.46 4.522 12.507 4.342 QT
12.554 4.162 12.632 4.069 QT
12.71 3.975 12.85 3.975 QT
16.616 3.678 L
16.96 3.678 16.96 4.022 QT
12.929 20.131 L
12.741 20.6 12.741 21.475 QT
12.741 22.678 13.538 22.678 QT
14.413 22.678 14.874 21.561 QT
15.335 20.444 15.647 18.991 QT
15.71 18.819 15.866 18.819 QT
16.21 18.819 L
16.319 18.819 16.389 18.912 QT
16.46 19.006 16.46 19.1 QT
15.96 21.053 15.382 22.233 QT
14.804 23.412 13.491 23.412 QT
12.554 23.412 11.827 22.858 QT
11.1 22.303 10.913 21.397 QT
9.116 23.412 7.304 23.412 QT
cp
7.319 22.678 M
8.335 22.678 9.288 21.92 QT
10.241 21.162 10.913 20.131 QT
10.944 20.1 10.944 20.022 QT
12.475 13.85 L
12.319 12.866 11.757 12.155 QT
11.194 11.444 10.257 11.444 QT
9.319 11.444 8.507 12.217 QT
7.694 12.991 7.132 14.053 QT
6.585 15.162 6.085 17.123 QT
5.585 19.084 5.585 20.162 QT
5.585 21.131 6.007 21.905 QT
6.429 22.678 7.319 22.678 QT
cp
f
GR
GS
[0.6 0 0 0.6 219.90015 138] CT
0.149 GC
N
18.32 29.537 M
18.32 29.459 18.336 29.428 QT
28.07 2.444 L
28.133 2.272 28.265 2.186 QT
28.398 2.1 28.586 2.1 QT
28.836 2.1 28.992 2.248 QT
29.148 2.397 29.148 2.662 QT
29.148 2.772 L
19.414 29.756 L
19.242 30.1 18.883 30.1 QT
18.648 30.1 18.484 29.936 QT
18.32 29.772 18.32 29.537 QT
cp
f
GR
GS
[0.6 0 0 0.6 219.90015 138] CT
0.149 GC
N
32.929 21.397 M
33.679 22.678 35.945 22.678 QT
36.929 22.678 37.82 22.342 QT
38.711 22.006 39.289 21.334 QT
39.867 20.662 39.867 19.709 QT
39.867 18.991 39.351 18.522 QT
38.836 18.053 38.086 17.897 QT
36.57 17.584 L
35.523 17.334 34.851 16.623 QT
34.179 15.912 34.179 14.897 QT
34.179 13.647 34.859 12.694 QT
35.539 11.741 36.648 11.233 QT
37.758 10.725 38.945 10.725 QT
40.211 10.725 41.219 11.334 QT
42.226 11.944 42.226 13.131 QT
42.226 13.772 41.859 14.264 QT
41.492 14.756 40.851 14.756 QT
40.492 14.756 40.226 14.522 QT
39.961 14.287 39.961 13.912 QT
39.961 13.584 40.14 13.28 QT
40.32 12.975 40.633 12.787 QT
40.945 12.6 41.273 12.6 QT
41.023 11.991 40.344 11.717 QT
39.664 11.444 38.883 11.444 QT
38.179 11.444 37.469 11.733 QT
36.758 12.022 36.328 12.576 QT
35.898 13.131 35.898 13.881 QT
35.898 14.397 36.25 14.78 QT
36.601 15.162 37.117 15.319 QT
38.758 15.647 L
39.523 15.819 40.179 16.233 QT
40.836 16.647 41.211 17.28 QT
41.586 17.912 41.586 18.741 QT
41.586 19.772 41 20.787 QT
40.414 21.803 39.57 22.397 QT
38.086 23.412 35.914 23.412 QT
34.429 23.412 33.187 22.733 QT
31.945 22.053 31.945 20.694 QT
31.945 19.928 32.39 19.358 QT
32.836 18.787 33.601 18.787 QT
34.054 18.787 34.359 19.061 QT
34.664 19.334 34.664 19.787 QT
34.664 20.428 34.187 20.912 QT
33.711 21.397 33.07 21.397 QT
32.929 21.397 L
cp
f
GR
GS
[0.6 0 0 0.6 219.90015 138] CT
0.149 GC
N
43.992 30.1 M
43.992 28.975 L
46.726 28.975 L
46.726 3.225 L
43.992 3.225 L
43.992 2.1 L
47.836 2.1 L
47.836 30.1 L
43.992 30.1 L
cp
f
GR
GS
[0.6 0 0 0.6 0 0] CT
0.149 GC
2 setlinecap
1 LJ
0.833 LW
N
99 188 M
99 53 L
S
GR
GS
[0.6 0 0 0.6 0 0] CT
0.149 GC
2 setlinecap
1 LJ
0.833 LW
N
634 188 M
634 53 L
S
GR
GS
[0.6 0 0 0.6 0 0] CT
0.149 GC
2 setlinecap
1 LJ
0.833 LW
N
99 165.121 M
104.35 165.121 L
S
GR
GS
[0.6 0 0 0.6 0 0] CT
0.149 GC
2 setlinecap
1 LJ
0.833 LW
N
99 115.889 M
104.35 115.889 L
S
GR
GS
[0.6 0 0 0.6 0 0] CT
0.149 GC
2 setlinecap
1 LJ
0.833 LW
N
99 66.658 M
104.35 66.658 L
S
GR
GS
[0.6 0 0 0.6 0 0] CT
0.149 GC
2 setlinecap
1 LJ
0.833 LW
N
634 165.121 M
628.65 165.121 L
S
GR
GS
[0.6 0 0 0.6 0 0] CT
0.149 GC
2 setlinecap
1 LJ
0.833 LW
N
634 115.889 M
628.65 115.889 L
S
GR
GS
[0.6 0 0 0.6 0 0] CT
0.149 GC
2 setlinecap
1 LJ
0.833 LW
N
634 66.658 M
628.65 66.658 L
S
GR
GS
[0.6 0 0 0.6 54.4 99.07257] CT
0.149 GC
/Helvetica-Bold 25 F
GS
[1 0 0 1 0 0] CT
-14 10 moveto 
1 -1 scale
(0) t 
GR
GR
GS
[0.6 0 0 0.6 54.4 69.5336] CT
0.149 GC
/Helvetica-Bold 25 F
GS
[1 0 0 1 0 0] CT
-42 10 moveto 
1 -1 scale
(100) t 
GR
GR
GS
[0.6 0 0 0.6 54.4 39.99462] CT
0.149 GC
/Helvetica-Bold 25 F
GS
[1 0 0 1 0 0] CT
-42 10 moveto 
1 -1 scale
(200) t 
GR
GR
GS
[0 -0.6 0.6 0 22.2 103.8] CT
0.149 GC
/Helvetica-Bold 27.5 F
GS
[1 0 0 1 0 0] CT
0 0 moveto 
1 -1 scale
(QTF-/) t 
GR
GR
GS
[0 -0.6 0.6 0 22.2 60.6] CT
0.149 GC
N
1.781 5.266 M
1.781 5.094 1.813 5.047 QT
4.578 -6.141 L
4.984 -7.641 5.945 -9.086 QT
6.906 -10.531 8.273 -11.453 QT
9.641 -12.375 11.156 -12.375 QT
13.375 -12.375 14.281 -11.742 QT
15.188 -11.109 15.648 -10.07 QT
16.109 -9.031 16.109 -7.813 QT
16.109 -6.453 15.555 -5.008 QT
15 -3.563 14.023 -2.359 QT
13.047 -1.156 11.773 -0.422 QT
10.5 0.313 8.109 0.313 QT
7.297 0.313 6.57 -0.172 QT
5.844 -0.656 5.844 -0.656 QT
4.781 5.156 L
4.688 5.547 4.359 5.797 QT
4.031 6.047 2.625 6.047 QT
2.281 6.047 2.031 5.836 QT
1.781 5.625 1.781 5.266 QT
cp
8.203 -0.422 M
9.656 -0.422 10.758 -1.945 QT
11.859 -3.469 12.438 -5.531 QT
13.016 -7.594 13.016 -9.016 QT
13.016 -10.078 12.555 -10.867 QT
12.094 -11.656 11.109 -11.656 QT
10.891 -11.656 9.961 -10.727 QT
9.031 -9.797 8.469 -8.555 QT
7.906 -7.313 7.547 -5.969 QT
6.781 -2.828 L
6.969 -1.813 7.586 -1.117 QT
8.203 -0.422 8.203 -0.422 QT
cp
f
GR
GS
[0 -0.6 0.6 0 22.2 51] CT
0.149 GC
/Helvetica-Bold 27.5 F
GS
[1 0 0 1 0 0] CT
0 0 moveto 
1 -1 scale
(g) t 
GR
GR
GS
[0.6 0 0 0.6 166.8 25.8] CT
/Helvetica-Bold 25 F
GS
[1 0 0 1 0 0] CT
0 0 moveto 
1 -1 scale
(QTF- for ) t 
GR
GR
GS
[0.6 0 0 0.6 230.4 25.8] CT
N
1.359 0 M
1.141 0 1.141 -0.203 QT
1.156 -0.219 1.164 -0.234 QT
1.172 -0.25 1.172 -0.281 QT
9.781 -17.625 L
9.891 -17.891 10.234 -17.891 QT
10.578 -17.891 L
11.906 -17.891 12.016 -17.625 QT
20.625 -0.281 L
20.641 -0.25 20.648 -0.234 QT
20.656 -0.219 20.656 -0.203 QT
20.656 0 19.453 0 QT
1.359 0 L
cp
4 -2 M
16.172 -2 L
9.984 -14.453 L
4 -2 L
cp
f
GR
GS
[0.6 0 0 0.6 244.2 25.8] CT
/Helvetica-Bold 25 F
GS
[1 0 0 1 0 0] CT
0 0 moveto 
1 -1 scale
(w=0) t 
GR
GR
GS
[0.6 0 0 0.6 0 0] CT
0 0 1 RC
1 LJ
3.333 LW
N
99 165.118 M
109.954 165.117 L
120.734 165.094 L
131.688 165.106 L
142.642 163.566 L
153.595 164.228 L
164.549 164.682 L
175.329 164.793 L
186.283 164.92 L
197.237 164.996 L
208.191 164.703 L
219.145 163.422 L
229.925 160.27 L
240.878 154.268 L
251.832 144.673 L
262.786 131.402 L
273.74 115.367 L
284.52 98.426 L
295.474 82.842 L
306.428 70.464 L
317.382 62.175 L
328.335 57.759 L
339.115 56.192 L
350.069 56.109 L
361.023 56.256 L
371.977 55.894 L
382.931 54.919 L
393.711 53.764 L
404.665 53 L
415.618 53.015 L
426.572 53.857 L
437.526 55.296 L
448.306 56.981 L
459.26 58.645 L
470.214 60.202 L
481.168 61.764 L
492.122 63.512 L
502.902 65.603 L
513.855 68.06 L
524.809 70.812 L
535.763 73.73 L
546.717 76.795 L
557.497 80.105 L
568.451 83.792 L
579.405 87.87 L
590.358 92.247 L
601.312 96.85 L
612.092 101.711 L
623.046 106.916 L
634 112.458 L
S
GR
GS
[0.6 0 0 0.6 0 0] CT
0 0 1 RC
[12 3 6 3] 0 setdash
2 LJ
3.333 LW
N
99 165.125 M
109.954 165.156 L
120.734 165.695 L
131.688 164.659 L
142.642 162.817 L
153.595 166.985 L
164.549 166.695 L
175.329 166.825 L
186.283 166.966 L
197.237 167.039 L
208.191 167.016 L
219.145 166.889 L
229.925 166.662 L
240.878 166.344 L
251.832 165.95 L
262.786 165.498 L
273.74 165.009 L
284.52 164.52 L
295.474 164.08 L
306.428 163.76 L
317.382 163.638 L
328.335 163.795 L
339.115 164.291 L
350.069 165.134 L
361.023 166.258 L
371.977 167.525 L
382.931 168.769 L
393.711 169.878 L
404.665 170.85 L
415.618 171.791 L
426.572 172.845 L
437.526 174.102 L
448.306 175.539 L
459.26 177.035 L
470.214 178.461 L
481.168 179.776 L
492.122 181.029 L
502.902 182.278 L
513.855 183.516 L
524.809 184.668 L
535.763 185.665 L
546.717 186.487 L
557.497 187.149 L
568.451 187.647 L
579.405 187.941 L
590.358 188 L
601.312 187.82 L
612.092 187.404 L
623.046 186.726 L
634 185.746 L
S
GR
GS
[0.6 0 0 0.6 0 0] CT
1 0 0 RC
[12 12] 0 setdash
2 LJ
3.333 LW
N
99 165.122 M
109.954 165.121 L
120.734 164.864 L
131.688 165.046 L
142.642 163.563 L
153.595 164.186 L
164.549 164.639 L
175.329 164.745 L
186.283 164.866 L
197.237 164.937 L
208.191 164.645 L
219.145 163.381 L
229.925 160.286 L
240.878 154.424 L
251.832 145.098 L
262.786 132.486 L
273.74 117.161 L
284.52 101.039 L
295.474 86.204 L
306.428 74.379 L
317.382 66.317 L
328.335 61.872 L
339.115 60.092 L
350.069 59.78 L
361.023 59.869 L
371.977 59.624 L
382.931 58.976 L
393.711 58.231 L
404.665 57.771 L
415.618 57.949 L
426.572 58.878 L
437.526 60.34 L
448.306 62.048 L
459.26 63.892 L
470.214 65.728 L
481.168 67.596 L
492.122 69.605 L
502.902 71.91 L
513.855 74.529 L
524.809 77.428 L
535.763 80.534 L
546.717 83.811 L
557.497 87.279 L
568.451 90.998 L
579.405 94.977 L
590.358 99.142 L
601.312 103.42 L
612.092 107.791 L
623.046 112.231 L
634 116.724 L
S
GR
GS
[0.6 0 0 0.6 0 0] CT
1 0 0 RC
[3 3] 0 setdash
2 LJ
3.333 LW
N
99 165.123 M
109.954 165.152 L
120.734 165.676 L
131.688 164.645 L
142.642 162.707 L
153.595 167.036 L
164.549 166.713 L
175.329 166.83 L
186.283 166.962 L
197.237 167.026 L
208.191 166.995 L
219.145 166.86 L
229.925 166.624 L
240.878 166.298 L
251.832 165.895 L
262.786 165.34 L
273.74 164.82 L
284.52 164.297 L
295.474 163.821 L
306.428 163.455 L
317.382 163.272 L
328.335 163.345 L
339.115 163.72 L
350.069 164.402 L
361.023 165.332 L
371.977 166.389 L
382.931 167.44 L
393.711 168.393 L
404.665 169.24 L
415.618 170.061 L
426.572 170.967 L
437.526 172.027 L
448.306 173.237 L
459.26 174.517 L
470.214 175.777 L
481.168 176.968 L
492.122 178.107 L
502.902 179.213 L
513.855 180.278 L
524.809 181.255 L
535.763 182.104 L
546.717 182.809 L
557.497 183.38 L
568.451 183.814 L
579.405 184.082 L
590.358 184.156 L
601.312 184.015 L
612.092 183.648 L
623.046 183.055 L
634 182.228 L
S
GR
GS
[0.6 0 0 0.6 0 0] CT
1 GC
N
99 437 M
634 437 L
634 302 L
99 302 L
cp
f
GR
GS
[0.6 0 0 0.6 0 0] CT
0.149 GC
2 setlinecap
1 LJ
0.833 LW
N
99 437 M
634 437 L
S
GR
GS
[0.6 0 0 0.6 0 0] CT
0.149 GC
2 setlinecap
1 LJ
0.833 LW
N
99 302 M
634 302 L
S
GR
GS
[0.6 0 0 0.6 0 0] CT
0.149 GC
2 setlinecap
1 LJ
0.833 LW
N
168.283 437 M
168.283 431.65 L
S
GR
GS
[0.6 0 0 0.6 0 0] CT
0.149 GC
2 setlinecap
1 LJ
0.833 LW
N
260.908 437 M
260.908 431.65 L
S
GR
GS
[0.6 0 0 0.6 0 0] CT
0.149 GC
2 setlinecap
1 LJ
0.833 LW
N
353.533 437 M
353.533 431.65 L
S
GR
GS
[0.6 0 0 0.6 0 0] CT
0.149 GC
2 setlinecap
1 LJ
0.833 LW
N
446.157 437 M
446.157 431.65 L
S
GR
GS
[0.6 0 0 0.6 0 0] CT
0.149 GC
2 setlinecap
1 LJ
0.833 LW
N
538.782 437 M
538.782 431.65 L
S
GR
GS
[0.6 0 0 0.6 0 0] CT
0.149 GC
2 setlinecap
1 LJ
0.833 LW
N
631.406 437 M
631.406 431.65 L
S
GR
GS
[0.6 0 0 0.6 0 0] CT
0.149 GC
2 setlinecap
1 LJ
0.833 LW
N
168.283 302 M
168.283 307.35 L
S
GR
GS
[0.6 0 0 0.6 0 0] CT
0.149 GC
2 setlinecap
1 LJ
0.833 LW
N
260.908 302 M
260.908 307.35 L
S
GR
GS
[0.6 0 0 0.6 0 0] CT
0.149 GC
2 setlinecap
1 LJ
0.833 LW
N
353.533 302 M
353.533 307.35 L
S
GR
GS
[0.6 0 0 0.6 0 0] CT
0.149 GC
2 setlinecap
1 LJ
0.833 LW
N
446.157 302 M
446.157 307.35 L
S
GR
GS
[0.6 0 0 0.6 0 0] CT
0.149 GC
2 setlinecap
1 LJ
0.833 LW
N
538.782 302 M
538.782 307.35 L
S
GR
GS
[0.6 0 0 0.6 0 0] CT
0.149 GC
2 setlinecap
1 LJ
0.833 LW
N
631.406 302 M
631.406 307.35 L
S
GR
GS
[0.6 0 0 0.6 100.96994 267.20001] CT
0.149 GC
/Helvetica-Bold 25 F
GS
[1 0 0 1 0 0] CT
-17.5 26 moveto 
1 -1 scale
(0.5) t 
GR
GR
GS
[0.6 0 0 0.6 156.54474 267.20001] CT
0.149 GC
/Helvetica-Bold 25 F
GS
[1 0 0 1 0 0] CT
-7 26 moveto 
1 -1 scale
(1) t 
GR
GR
GS
[0.6 0 0 0.6 212.11954 267.20001] CT
0.149 GC
/Helvetica-Bold 25 F
GS
[1 0 0 1 0 0] CT
-17.5 26 moveto 
1 -1 scale
(1.5) t 
GR
GR
GS
[0.6 0 0 0.6 267.69432 267.20001] CT
0.149 GC
/Helvetica-Bold 25 F
GS
[1 0 0 1 0 0] CT
-7 26 moveto 
1 -1 scale
(2) t 
GR
GR
GS
[0.6 0 0 0.6 323.26912 267.20001] CT
0.149 GC
/Helvetica-Bold 25 F
GS
[1 0 0 1 0 0] CT
-17.5 26 moveto 
1 -1 scale
(2.5) t 
GR
GR
GS
[0.6 0 0 0.6 378.8439 267.20001] CT
0.149 GC
/Helvetica-Bold 25 F
GS
[1 0 0 1 0 0] CT
-7 26 moveto 
1 -1 scale
(3) t 
GR
GR
GS
[0.6 0 0 0.6 219.90015 287.4] CT
0.149 GC
N
/f-1480514271{-47.631 23.412 M
-49.209 23.412 -49.92 22.248 QT
-50.631 21.084 -50.631 19.412 QT
-50.631 18.303 -50.428 17.241 QT
-50.225 16.178 -49.826 15.092 QT
-49.428 14.006 -48.904 13.053 QT
-48.381 12.1 -47.74 11.209 QT
-47.615 11.022 -47.412 11.022 QT
-47.24 11.022 -47.131 11.131 QT
-47.021 11.241 -47.021 11.397 QT
-47.021 11.553 -47.1 11.662 QT
-49.646 15.178 -49.646 18.147 QT
-49.646 19.428 -49.053 20.358 QT
-48.459 21.287 -47.24 21.287 QT
-46.193 21.287 -45.295 20.67 QT
-44.396 20.053 -43.74 19.1 QT
-43.74 18.6 -43.576 17.561 QT
-43.412 16.522 -43.045 15.709 QT
-42.678 14.897 -42.178 14.897 QT
-41.537 14.897 -41.537 15.647 QT
-41.537 16.084 -41.717 16.748 QT
-41.896 17.412 -42.123 17.983 QT
-42.35 18.553 -42.678 19.287 QT
-42.35 21.287 -40.678 21.287 QT
-39.709 21.287 -38.732 20.725 QT
-37.756 20.162 -37.006 19.248 QT
-36.256 18.334 -35.826 17.287 QT
-35.396 16.241 -35.396 15.287 QT
-35.396 14.444 -35.662 13.975 QT
-35.928 13.506 -36.365 12.983 QT
-36.803 12.459 -36.803 12.147 QT
-36.803 11.6 -36.334 11.147 QT
-35.865 10.694 -35.334 10.694 QT
-34.662 10.694 -34.373 11.319 QT
-34.084 11.944 -34.084 12.741 QT
-34.084 14.022 -34.592 15.975 QT
-35.1 17.928 -35.756 19.225 QT
-36.662 20.991 -38.021 22.201 QT
-39.381 23.412 -41.084 23.412 QT
-42.162 23.412 -42.826 22.764 QT
-43.49 22.116 -43.678 20.991 QT
-44.459 22.1 -45.459 22.756 QT
-46.459 23.412 -47.631 23.412 QT
cp}def
f-1480514271
f
GR
GS
[0.6 0 0 0.6 219.90015 287.4] CT
0.149 GC
N
/f-911220341{-29.605 30.1 M
-29.605 2.1 L
-25.777 2.1 L
-25.777 3.225 L
-28.48 3.225 L
-28.48 28.975 L
-25.777 28.975 L
-25.777 30.1 L
-29.605 30.1 L
cp}def
f-911220341
f
GR
GS
[0.6 0 0 0.6 219.90015 287.4] CT
0.149 GC
N
/f-552804661{-23.122 22.616 M
-23.122 22.459 -23.091 22.381 QT
-20.997 14.022 L
-20.794 13.241 -20.794 12.647 QT
-20.794 11.444 -21.607 11.444 QT
-22.482 11.444 -22.911 12.491 QT
-23.341 13.537 -23.732 15.147 QT
-23.732 15.225 -23.817 15.272 QT
-23.903 15.319 -23.966 15.319 QT
-24.294 15.319 L
-24.388 15.319 -24.458 15.217 QT
-24.528 15.116 -24.528 15.037 QT
-24.232 13.819 -23.95 12.967 QT
-23.669 12.116 -23.075 11.42 QT
-22.482 10.725 -21.591 10.725 QT
-20.622 10.725 -19.888 11.287 QT
-19.153 11.85 -18.982 12.756 QT
-18.263 11.834 -17.357 11.28 QT
-16.45 10.725 -15.372 10.725 QT
-14.482 10.725 -13.802 11.248 QT
-13.122 11.772 -13.122 12.647 QT
-13.122 13.366 -13.567 13.889 QT
-14.013 14.412 -14.747 14.412 QT
-15.2 14.412 -15.505 14.131 QT
-15.81 13.85 -15.81 13.412 QT
-15.81 12.787 -15.364 12.303 QT
-14.919 11.819 -14.325 11.819 QT
-14.778 11.444 -15.419 11.444 QT
-16.622 11.444 -17.513 12.303 QT
-18.403 13.162 -19.107 14.475 QT
-21.107 22.491 L
-21.2 22.866 -21.536 23.139 QT
-21.872 23.412 -22.278 23.412 QT
-22.622 23.412 -22.872 23.194 QT
-23.122 22.975 -23.122 22.616 QT
cp}def
f-552804661
f
GR
GS
[0.6 0 0 0.6 219.90015 287.4] CT
0.149 GC
N
/f663259062{-7.233 23.412 M
-8.998 23.412 -10.022 22.076 QT
-11.045 20.741 -11.045 18.928 QT
-11.045 17.131 -10.115 15.209 QT
-9.186 13.287 -7.608 12.006 QT
-6.03 10.725 -4.201 10.725 QT
-3.373 10.725 -2.717 11.178 QT
-2.061 11.631 -1.686 12.412 QT
-1.373 11.287 -0.451 11.287 QT
-0.108 11.287 0.135 11.498 QT
0.377 11.709 0.377 12.069 QT
0.377 12.147 0.369 12.186 QT
0.361 12.225 0.345 12.287 QT
-1.608 20.1 L
-1.795 20.944 -1.795 21.475 QT
-1.795 22.678 -0.998 22.678 QT
-0.123 22.678 0.338 21.561 QT
0.799 20.444 1.111 18.991 QT
1.174 18.819 1.33 18.819 QT
1.674 18.819 L
1.783 18.819 1.853 18.912 QT
1.924 19.006 1.924 19.1 QT
1.424 21.053 0.845 22.233 QT
0.267 23.412 -1.045 23.412 QT
-1.983 23.412 -2.709 22.858 QT
-3.436 22.303 -3.623 21.397 QT
-5.42 23.412 -7.233 23.412 QT
cp
-7.217 22.678 M
-6.201 22.678 -5.248 21.92 QT
-4.295 21.162 -3.623 20.131 QT
-3.592 20.1 -3.592 20.053 QT
-2.092 13.959 L
-2.061 13.881 L
-2.217 12.881 -2.772 12.162 QT
-3.326 11.444 -4.28 11.444 QT
-5.217 11.444 -6.03 12.217 QT
-6.842 12.991 -7.405 14.053 QT
-7.951 15.162 -8.451 17.123 QT
-8.951 19.084 -8.951 20.162 QT
-8.951 21.131 -8.53 21.905 QT
-8.108 22.678 -7.217 22.678 QT
cp}def
f663259062
f
GR
GS
[0.6 0 0 0.6 219.90015 287.4] CT
0.149 GC
N
/f-1854391993{7.304 23.412 M
5.538 23.412 4.514 22.076 QT
3.491 20.741 3.491 18.928 QT
3.491 17.131 4.421 15.209 QT
5.35 13.287 6.929 12.006 QT
8.507 10.725 10.335 10.725 QT
11.147 10.725 11.811 11.186 QT
12.475 11.647 12.85 12.412 QT
14.413 6.162 L
14.522 5.678 14.554 5.412 QT
14.554 4.959 12.741 4.959 QT
12.444 4.959 12.444 4.584 QT
12.46 4.522 12.507 4.342 QT
12.554 4.162 12.632 4.069 QT
12.71 3.975 12.85 3.975 QT
16.616 3.678 L
16.96 3.678 16.96 4.022 QT
12.929 20.131 L
12.741 20.6 12.741 21.475 QT
12.741 22.678 13.538 22.678 QT
14.413 22.678 14.874 21.561 QT
15.335 20.444 15.647 18.991 QT
15.71 18.819 15.866 18.819 QT
16.21 18.819 L
16.319 18.819 16.389 18.912 QT
16.46 19.006 16.46 19.1 QT
15.96 21.053 15.382 22.233 QT
14.804 23.412 13.491 23.412 QT
12.554 23.412 11.827 22.858 QT
11.1 22.303 10.913 21.397 QT
9.116 23.412 7.304 23.412 QT
cp
7.319 22.678 M
8.335 22.678 9.288 21.92 QT
10.241 21.162 10.913 20.131 QT
10.944 20.1 10.944 20.022 QT
12.475 13.85 L
12.319 12.866 11.757 12.155 QT
11.194 11.444 10.257 11.444 QT
9.319 11.444 8.507 12.217 QT
7.694 12.991 7.132 14.053 QT
6.585 15.162 6.085 17.123 QT
5.585 19.084 5.585 20.162 QT
5.585 21.131 6.007 21.905 QT
6.429 22.678 7.319 22.678 QT
cp}def
f-1854391993
f
GR
GS
[0.6 0 0 0.6 219.90015 287.4] CT
0.149 GC
N
/f1477946294{18.32 29.537 M
18.32 29.459 18.336 29.428 QT
28.07 2.444 L
28.133 2.272 28.265 2.186 QT
28.398 2.1 28.586 2.1 QT
28.836 2.1 28.992 2.248 QT
29.148 2.397 29.148 2.662 QT
29.148 2.772 L
19.414 29.756 L
19.242 30.1 18.883 30.1 QT
18.648 30.1 18.484 29.936 QT
18.32 29.772 18.32 29.537 QT
cp}def
f1477946294
f
GR
GS
[0.6 0 0 0.6 219.90015 287.4] CT
0.149 GC
N
/f-530401850{32.929 21.397 M
33.679 22.678 35.945 22.678 QT
36.929 22.678 37.82 22.342 QT
38.711 22.006 39.289 21.334 QT
39.867 20.662 39.867 19.709 QT
39.867 18.991 39.351 18.522 QT
38.836 18.053 38.086 17.897 QT
36.57 17.584 L
35.523 17.334 34.851 16.623 QT
34.179 15.912 34.179 14.897 QT
34.179 13.647 34.859 12.694 QT
35.539 11.741 36.648 11.233 QT
37.758 10.725 38.945 10.725 QT
40.211 10.725 41.219 11.334 QT
42.226 11.944 42.226 13.131 QT
42.226 13.772 41.859 14.264 QT
41.492 14.756 40.851 14.756 QT
40.492 14.756 40.226 14.522 QT
39.961 14.287 39.961 13.912 QT
39.961 13.584 40.14 13.28 QT
40.32 12.975 40.633 12.787 QT
40.945 12.6 41.273 12.6 QT
41.023 11.991 40.344 11.717 QT
39.664 11.444 38.883 11.444 QT
38.179 11.444 37.469 11.733 QT
36.758 12.022 36.328 12.576 QT
35.898 13.131 35.898 13.881 QT
35.898 14.397 36.25 14.78 QT
36.601 15.162 37.117 15.319 QT
38.758 15.647 L
39.523 15.819 40.179 16.233 QT
40.836 16.647 41.211 17.28 QT
41.586 17.912 41.586 18.741 QT
41.586 19.772 41 20.787 QT
40.414 21.803 39.57 22.397 QT
38.086 23.412 35.914 23.412 QT
34.429 23.412 33.187 22.733 QT
31.945 22.053 31.945 20.694 QT
31.945 19.928 32.39 19.358 QT
32.836 18.787 33.601 18.787 QT
34.054 18.787 34.359 19.061 QT
34.664 19.334 34.664 19.787 QT
34.664 20.428 34.187 20.912 QT
33.711 21.397 33.07 21.397 QT
32.929 21.397 L
cp}def
f-530401850
f
GR
GS
[0.6 0 0 0.6 219.90015 287.4] CT
0.149 GC
N
/f-1848120821{43.992 30.1 M
43.992 28.975 L
46.726 28.975 L
46.726 3.225 L
43.992 3.225 L
43.992 2.1 L
47.836 2.1 L
47.836 30.1 L
43.992 30.1 L
cp}def
f-1848120821
f
GR
GS
[0.6 0 0 0.6 0 0] CT
0.149 GC
2 setlinecap
1 LJ
0.833 LW
N
99 437 M
99 302 L
S
GR
GS
[0.6 0 0 0.6 0 0] CT
0.149 GC
2 setlinecap
1 LJ
0.833 LW
N
634 437 M
634 302 L
S
GR
GS
[0.6 0 0 0.6 0 0] CT
0.149 GC
2 setlinecap
1 LJ
0.833 LW
N
99 428.923 M
104.35 428.923 L
S
GR
GS
[0.6 0 0 0.6 0 0] CT
0.149 GC
2 setlinecap
1 LJ
0.833 LW
N
99 392.659 M
104.35 392.659 L
S
GR
GS
[0.6 0 0 0.6 0 0] CT
0.149 GC
2 setlinecap
1 LJ
0.833 LW
N
99 356.396 M
104.35 356.396 L
S
GR
GS
[0.6 0 0 0.6 0 0] CT
0.149 GC
2 setlinecap
1 LJ
0.833 LW
N
99 320.132 M
104.35 320.132 L
S
GR
GS
[0.6 0 0 0.6 0 0] CT
0.149 GC
2 setlinecap
1 LJ
0.833 LW
N
634 428.923 M
628.65 428.923 L
S
GR
GS
[0.6 0 0 0.6 0 0] CT
0.149 GC
2 setlinecap
1 LJ
0.833 LW
N
634 392.659 M
628.65 392.659 L
S
GR
GS
[0.6 0 0 0.6 0 0] CT
0.149 GC
2 setlinecap
1 LJ
0.833 LW
N
634 356.396 M
628.65 356.396 L
S
GR
GS
[0.6 0 0 0.6 0 0] CT
0.149 GC
2 setlinecap
1 LJ
0.833 LW
N
634 320.132 M
628.65 320.132 L
S
GR
GS
[0.6 0 0 0.6 54.4 257.35386] CT
0.149 GC
/Helvetica-Bold 25 F
GS
[1 0 0 1 0 0] CT
-51 10 moveto 
1 -1 scale
(-200) t 
GR
GR
GS
[0.6 0 0 0.6 54.4 235.5956] CT
0.149 GC
/Helvetica-Bold 25 F
GS
[1 0 0 1 0 0] CT
-14 10 moveto 
1 -1 scale
(0) t 
GR
GR
GS
[0.6 0 0 0.6 54.4 213.83736] CT
0.149 GC
/Helvetica-Bold 25 F
GS
[1 0 0 1 0 0] CT
-42 10 moveto 
1 -1 scale
(200) t 
GR
GR
GS
[0.6 0 0 0.6 54.4 192.07912] CT
0.149 GC
/Helvetica-Bold 25 F
GS
[1 0 0 1 0 0] CT
-42 10 moveto 
1 -1 scale
(400) t 
GR
GR
GS
[0 -0.6 0.6 0 16.8 253.2] CT
0.149 GC
/Helvetica-Bold 27.5 F
GS
[1 0 0 1 0 0] CT
0 0 moveto 
1 -1 scale
(QTF-/) t 
GR
GR
GS
[0 -0.6 0.6 0 16.8 210] CT
0.149 GC
N
/f-1302711506{1.781 5.266 M
1.781 5.094 1.813 5.047 QT
4.578 -6.141 L
4.984 -7.641 5.945 -9.086 QT
6.906 -10.531 8.273 -11.453 QT
9.641 -12.375 11.156 -12.375 QT
13.375 -12.375 14.281 -11.742 QT
15.188 -11.109 15.648 -10.07 QT
16.109 -9.031 16.109 -7.813 QT
16.109 -6.453 15.555 -5.008 QT
15 -3.563 14.023 -2.359 QT
13.047 -1.156 11.773 -0.422 QT
10.5 0.313 8.109 0.313 QT
7.297 0.313 6.57 -0.172 QT
5.844 -0.656 5.844 -0.656 QT
4.781 5.156 L
4.688 5.547 4.359 5.797 QT
4.031 6.047 2.625 6.047 QT
2.281 6.047 2.031 5.836 QT
1.781 5.625 1.781 5.266 QT
cp
8.203 -0.422 M
9.656 -0.422 10.758 -1.945 QT
11.859 -3.469 12.438 -5.531 QT
13.016 -7.594 13.016 -9.016 QT
13.016 -10.078 12.555 -10.867 QT
12.094 -11.656 11.109 -11.656 QT
10.891 -11.656 9.961 -10.727 QT
9.031 -9.797 8.469 -8.555 QT
7.906 -7.313 7.547 -5.969 QT
6.781 -2.828 L
6.969 -1.813 7.586 -1.117 QT
8.203 -0.422 8.203 -0.422 QT
cp}def
f-1302711506
f
GR
GS
[0 -0.6 0.6 0 16.8 200.4] CT
0.149 GC
/Helvetica-Bold 27.5 F
GS
[1 0 0 1 0 0] CT
0 0 moveto 
1 -1 scale
(g) t 
GR
GR
GS
[0.6 0 0 0.6 152.4 175.2] CT
/Helvetica-Bold 25 F
GS
[1 0 0 1 0 0] CT
0 0 moveto 
1 -1 scale
(QTF- for ) t 
GR
GR
GS
[0.6 0 0 0.6 216 175.2] CT
N
/f737086292{1.359 0 M
1.141 0 1.141 -0.203 QT
1.156 -0.219 1.164 -0.234 QT
1.172 -0.25 1.172 -0.281 QT
9.781 -17.625 L
9.891 -17.891 10.234 -17.891 QT
10.578 -17.891 L
11.906 -17.891 12.016 -17.625 QT
20.625 -0.281 L
20.641 -0.25 20.648 -0.234 QT
20.656 -0.219 20.656 -0.203 QT
20.656 0 19.453 0 QT
1.359 0 L
cp
4 -2 M
16.172 -2 L
9.984 -14.453 L
4 -2 L
cp}def
f737086292
f
GR
GS
[0.6 0 0 0.6 229.8 175.2] CT
/Helvetica-Bold 25 F
GS
[1 0 0 1 0 0] CT
0 0 moveto 
1 -1 scale
(w=0.189) t 
GR
GR
GS
[0.6 0 0 0.6 0 0] CT
0 0 1 RC
1 LJ
3.333 LW
N
99 392.687 M
110.485 392.413 L
122.156 392.074 L
133.827 392.694 L
145.498 391.815 L
157.168 392.399 L
168.654 392.626 L
180.324 392.634 L
191.995 392.497 L
203.666 392.063 L
215.337 391.08 L
226.822 389.251 L
238.493 386.336 L
250.163 382.261 L
261.834 377.214 L
273.505 371.643 L
284.99 366.161 L
296.661 361.391 L
308.332 357.79 L
320.002 355.518 L
331.673 354.418 L
343.159 354.108 L
354.829 354.151 L
366.5 354.216 L
378.171 354.164 L
389.841 354.038 L
401.327 353.986 L
412.998 354.15 L
424.668 354.581 L
436.339 355.237 L
448.01 356.029 L
459.495 356.878 L
471.166 357.749 L
482.837 358.647 L
494.507 359.592 L
506.178 360.607 L
517.663 361.712 L
529.334 362.926 L
541.005 364.241 L
552.676 365.633 L
564.346 367.088 L
575.832 368.612 L
587.502 370.227 L
599.173 371.948 L
610.844 373.754 L
622.515 375.622 L
634 377.54 L
S
GR
GS
[0.6 0 0 0.6 0 0] CT
0 0 1 RC
[12 3 6 3] 0 setdash
2 LJ
3.333 LW
N
99 392.181 M
110.485 419.358 L
122.156 349.8 L
133.827 385.356 L
145.498 327.641 L
157.168 429.357 L
168.654 412.751 L
180.324 407.77 L
191.995 404.83 L
203.666 402.627 L
215.337 400.781 L
226.822 399.042 L
238.493 397.17 L
250.163 394.989 L
261.834 392.505 L
273.505 389.967 L
284.99 387.805 L
296.661 386.442 L
308.332 386.105 L
320.002 386.756 L
331.673 388.153 L
343.159 389.965 L
354.829 391.867 L
366.5 393.628 L
378.171 395.165 L
389.841 396.539 L
401.327 397.882 L
412.998 399.313 L
424.668 400.875 L
436.339 402.527 L
448.01 404.18 L
459.495 405.736 L
471.166 407.141 L
482.837 408.396 L
494.507 409.543 L
506.178 410.627 L
517.663 411.664 L
529.334 412.619 L
541.005 413.434 L
552.676 414.065 L
564.346 414.518 L
575.832 414.826 L
587.502 415.009 L
599.173 415.03 L
610.844 414.846 L
622.515 414.444 L
634 413.854 L
S
GR
GS
[0.6 0 0 0.6 0 0] CT
1 0 0 RC
[12 12] 0 setdash
2 LJ
3.333 LW
N
99 392.687 M
110.485 392.647 L
122.156 392.377 L
133.827 392.698 L
145.498 391.687 L
157.168 392.308 L
168.654 392.565 L
180.324 392.56 L
191.995 392.405 L
203.666 391.96 L
215.337 390.984 L
226.822 389.197 L
238.493 386.378 L
250.163 382.484 L
261.834 377.681 L
273.505 372.412 L
284.99 367.22 L
296.661 362.688 L
308.332 359.239 L
320.002 357.019 L
331.673 355.884 L
343.159 355.52 L
354.829 355.523 L
366.5 355.608 L
378.171 355.646 L
389.841 355.631 L
401.327 355.689 L
412.998 355.938 L
424.668 356.405 L
436.339 357.067 L
448.01 357.885 L
459.495 358.775 L
471.166 359.694 L
482.837 360.651 L
494.507 361.658 L
506.178 362.726 L
517.663 363.872 L
529.334 365.114 L
541.005 366.447 L
552.676 367.858 L
564.346 369.328 L
575.832 370.85 L
587.502 372.424 L
599.173 374.051 L
610.844 375.72 L
622.515 377.405 L
634 379.083 L
S
GR
GS
[0.6 0 0 0.6 0 0] CT
1 0 0 RC
[3 3] 0 setdash
2 LJ
3.333 LW
N
99 389.667 M
110.485 400.205 L
122.156 367.575 L
133.827 385.432 L
145.498 316.754 L
157.168 437 L
168.654 416.775 L
180.324 410.588 L
191.995 406.975 L
203.666 404.325 L
215.337 402.161 L
226.822 400.181 L
238.493 398.457 L
250.163 396.121 L
261.834 393.543 L
273.505 391.269 L
284.99 389.089 L
296.661 387.673 L
308.332 387.207 L
320.002 387.65 L
331.673 388.774 L
343.159 390.283 L
354.829 391.894 L
366.5 393.406 L
378.171 394.75 L
389.841 395.967 L
401.327 397.164 L
412.998 398.428 L
424.668 399.799 L
436.339 401.253 L
448.01 402.718 L
459.495 404.125 L
471.166 405.43 L
482.837 406.616 L
494.507 407.708 L
506.178 408.733 L
517.663 409.699 L
529.334 410.576 L
541.005 411.33 L
552.676 411.933 L
564.346 412.379 L
575.832 412.681 L
587.502 412.854 L
599.173 412.881 L
610.844 412.732 L
622.515 412.401 L
634 411.893 L
S
GR
%%Trailer
%%Pages: 1
%%EOF
