%!PS-Adobe-3.0 EPSF-3.0
%%Creator: (MATLAB, The Mathworks, Inc. Version 9.10.0.1739362 \(R2021a\) Update 5. Operating System: Windows 10)
%%Title: (C:/Users/rkurnia/Documents/Test-VirtualBox/NEMOH_LHEEA/output/Journee Hydro paper/SOFTWIND/figures/QTFP_Pitch_beta00_diag.eps)
%%CreationDate: 2022-10-28T11:05:50
%%Pages: (atend)
%%BoundingBox:     0     0   420   315
%%LanguageLevel: 3
%%EndComments
%%BeginProlog
%%BeginResource: procset (Apache XML Graphics Std ProcSet) 1.2 0
%%Version: 1.2 0
%%Copyright: (Copyright 2001-2003,2010 The Apache Software Foundation. License terms: http://www.apache.org/licenses/LICENSE-2.0)
/bd{bind def}bind def
/ld{load def}bd
/GR/grestore ld
/GS/gsave ld
/RM/rmoveto ld
/C/curveto ld
/t/show ld
/L/lineto ld
/ML/setmiterlimit ld
/CT/concat ld
/f/fill ld
/N/newpath ld
/S/stroke ld
/CC/setcmykcolor ld
/A/ashow ld
/cp/closepath ld
/RC/setrgbcolor ld
/LJ/setlinejoin ld
/GC/setgray ld
/LW/setlinewidth ld
/M/moveto ld
/re {4 2 roll M
1 index 0 rlineto
0 exch rlineto
neg 0 rlineto
cp } bd
/_ctm matrix def
/_tm matrix def
/BT { _ctm currentmatrix pop matrix _tm copy pop 0 0 moveto } bd
/ET { _ctm setmatrix } bd
/iTm { _ctm setmatrix _tm concat } bd
/Tm { _tm astore pop iTm 0 0 moveto } bd
/ux 0.0 def
/uy 0.0 def
/F {
  /Tp exch def
  /Tf exch def
  Tf findfont Tp scalefont setfont
  /cf Tf def  /cs Tp def
} bd
/ULS {currentpoint /uy exch def /ux exch def} bd
/ULE {
  /Tcx currentpoint pop def
  gsave
  newpath
  cf findfont cs scalefont dup
  /FontMatrix get 0 get /Ts exch def /FontInfo get dup
  /UnderlinePosition get Ts mul /To exch def
  /UnderlineThickness get Ts mul /Tt exch def
  ux uy To add moveto  Tcx uy To add lineto
  Tt setlinewidth stroke
  grestore
} bd
/OLE {
  /Tcx currentpoint pop def
  gsave
  newpath
  cf findfont cs scalefont dup
  /FontMatrix get 0 get /Ts exch def /FontInfo get dup
  /UnderlinePosition get Ts mul /To exch def
  /UnderlineThickness get Ts mul /Tt exch def
  ux uy To add cs add moveto Tcx uy To add cs add lineto
  Tt setlinewidth stroke
  grestore
} bd
/SOE {
  /Tcx currentpoint pop def
  gsave
  newpath
  cf findfont cs scalefont dup
  /FontMatrix get 0 get /Ts exch def /FontInfo get dup
  /UnderlinePosition get Ts mul /To exch def
  /UnderlineThickness get Ts mul /Tt exch def
  ux uy To add cs 10 mul 26 idiv add moveto Tcx uy To add cs 10 mul 26 idiv add lineto
  Tt setlinewidth stroke
  grestore
} bd
/QT {
/Y22 exch store
/X22 exch store
/Y21 exch store
/X21 exch store
currentpoint
/Y21 load 2 mul add 3 div exch
/X21 load 2 mul add 3 div exch
/X21 load 2 mul /X22 load add 3 div
/Y21 load 2 mul /Y22 load add 3 div
/X22 load /Y22 load curveto
} bd
/SSPD {
dup length /d exch dict def
{
/v exch def
/k exch def
currentpagedevice k known {
/cpdv currentpagedevice k get def
v cpdv ne {
/upd false def
/nullv v type /nulltype eq def
/nullcpdv cpdv type /nulltype eq def
nullv nullcpdv or
{
/upd true def
} {
/sametype v type cpdv type eq def
sametype {
v type /arraytype eq {
/vlen v length def
/cpdvlen cpdv length def
vlen cpdvlen eq {
0 1 vlen 1 sub {
/i exch def
/obj v i get def
/cpdobj cpdv i get def
obj cpdobj ne {
/upd true def
exit
} if
} for
} {
/upd true def
} ifelse
} {
v type /dicttype eq {
v {
/dv exch def
/dk exch def
/cpddv cpdv dk get def
dv cpddv ne {
/upd true def
exit
} if
} forall
} {
/upd true def
} ifelse
} ifelse
} if
} ifelse
upd true eq {
d k v put
} if
} if
} if
} forall
d length 0 gt {
d setpagedevice
} if
} bd
/RE { % /NewFontName [NewEncodingArray] /FontName RE -
  findfont dup length dict begin
  {
    1 index /FID ne
    {def} {pop pop} ifelse
  } forall
  /Encoding exch def
  /FontName 1 index def
  currentdict definefont pop
  end
} bind def
%%EndResource
%%BeginResource: procset (Apache XML Graphics EPS ProcSet) 1.0 0
%%Version: 1.0 0
%%Copyright: (Copyright 2002-2003 The Apache Software Foundation. License terms: http://www.apache.org/licenses/LICENSE-2.0)
/BeginEPSF { %def
/b4_Inc_state save def         % Save state for cleanup
/dict_count countdictstack def % Count objects on dict stack
/op_count count 1 sub def      % Count objects on operand stack
userdict begin                 % Push userdict on dict stack
/showpage { } def              % Redefine showpage, { } = null proc
0 setgray 0 setlinecap         % Prepare graphics state
1 setlinewidth 0 setlinejoin
10 setmiterlimit [ ] 0 setdash newpath
/languagelevel where           % If level not equal to 1 then
{pop languagelevel             % set strokeadjust and
1 ne                           % overprint to their defaults.
{false setstrokeadjust false setoverprint
} if
} if
} bd
/EndEPSF { %def
count op_count sub {pop} repeat            % Clean up stacks
countdictstack dict_count sub {end} repeat
b4_Inc_state restore
} bd
%%EndResource
%FOPBeginFontDict
%%IncludeResource: font Courier-Oblique
%%IncludeResource: font Courier-BoldOblique
%%IncludeResource: font Courier-Bold
%%IncludeResource: font ZapfDingbats
%%IncludeResource: font Symbol
%%IncludeResource: font Helvetica
%%IncludeResource: font Helvetica-Oblique
%%IncludeResource: font Helvetica-Bold
%%IncludeResource: font Helvetica-BoldOblique
%%IncludeResource: font Times-Roman
%%IncludeResource: font Times-Italic
%%IncludeResource: font Times-Bold
%%IncludeResource: font Times-BoldItalic
%%IncludeResource: font Courier
%FOPEndFontDict
%%BeginResource: encoding WinAnsiEncoding
/WinAnsiEncoding [
/.notdef /.notdef /.notdef /.notdef /.notdef
/.notdef /.notdef /.notdef /.notdef /.notdef
/.notdef /.notdef /.notdef /.notdef /.notdef
/.notdef /.notdef /.notdef /.notdef /.notdef
/.notdef /.notdef /.notdef /.notdef /.notdef
/.notdef /.notdef /.notdef /.notdef /.notdef
/.notdef /.notdef /space /exclam /quotedbl
/numbersign /dollar /percent /ampersand /quotesingle
/parenleft /parenright /asterisk /plus /comma
/hyphen /period /slash /zero /one
/two /three /four /five /six
/seven /eight /nine /colon /semicolon
/less /equal /greater /question /at
/A /B /C /D /E
/F /G /H /I /J
/K /L /M /N /O
/P /Q /R /S /T
/U /V /W /X /Y
/Z /bracketleft /backslash /bracketright /asciicircum
/underscore /quoteleft /a /b /c
/d /e /f /g /h
/i /j /k /l /m
/n /o /p /q /r
/s /t /u /v /w
/x /y /z /braceleft /bar
/braceright /asciitilde /bullet /Euro /bullet
/quotesinglbase /florin /quotedblbase /ellipsis /dagger
/daggerdbl /circumflex /perthousand /Scaron /guilsinglleft
/OE /bullet /Zcaron /bullet /bullet
/quoteleft /quoteright /quotedblleft /quotedblright /bullet
/endash /emdash /asciitilde /trademark /scaron
/guilsinglright /oe /bullet /zcaron /Ydieresis
/space /exclamdown /cent /sterling /currency
/yen /brokenbar /section /dieresis /copyright
/ordfeminine /guillemotleft /logicalnot /sfthyphen /registered
/macron /degree /plusminus /twosuperior /threesuperior
/acute /mu /paragraph /middot /cedilla
/onesuperior /ordmasculine /guillemotright /onequarter /onehalf
/threequarters /questiondown /Agrave /Aacute /Acircumflex
/Atilde /Adieresis /Aring /AE /Ccedilla
/Egrave /Eacute /Ecircumflex /Edieresis /Igrave
/Iacute /Icircumflex /Idieresis /Eth /Ntilde
/Ograve /Oacute /Ocircumflex /Otilde /Odieresis
/multiply /Oslash /Ugrave /Uacute /Ucircumflex
/Udieresis /Yacute /Thorn /germandbls /agrave
/aacute /acircumflex /atilde /adieresis /aring
/ae /ccedilla /egrave /eacute /ecircumflex
/edieresis /igrave /iacute /icircumflex /idieresis
/eth /ntilde /ograve /oacute /ocircumflex
/otilde /odieresis /divide /oslash /ugrave
/uacute /ucircumflex /udieresis /yacute /thorn
/ydieresis
] def
%%EndResource
%FOPBeginFontReencode
/Courier-Oblique findfont
dup length dict begin
  {1 index /FID ne {def} {pop pop} ifelse} forall
  /Encoding WinAnsiEncoding def
  currentdict
end
/Courier-Oblique exch definefont pop
/Courier-BoldOblique findfont
dup length dict begin
  {1 index /FID ne {def} {pop pop} ifelse} forall
  /Encoding WinAnsiEncoding def
  currentdict
end
/Courier-BoldOblique exch definefont pop
/Courier-Bold findfont
dup length dict begin
  {1 index /FID ne {def} {pop pop} ifelse} forall
  /Encoding WinAnsiEncoding def
  currentdict
end
/Courier-Bold exch definefont pop
/Helvetica findfont
dup length dict begin
  {1 index /FID ne {def} {pop pop} ifelse} forall
  /Encoding WinAnsiEncoding def
  currentdict
end
/Helvetica exch definefont pop
/Helvetica-Oblique findfont
dup length dict begin
  {1 index /FID ne {def} {pop pop} ifelse} forall
  /Encoding WinAnsiEncoding def
  currentdict
end
/Helvetica-Oblique exch definefont pop
/Helvetica-Bold findfont
dup length dict begin
  {1 index /FID ne {def} {pop pop} ifelse} forall
  /Encoding WinAnsiEncoding def
  currentdict
end
/Helvetica-Bold exch definefont pop
/Helvetica-BoldOblique findfont
dup length dict begin
  {1 index /FID ne {def} {pop pop} ifelse} forall
  /Encoding WinAnsiEncoding def
  currentdict
end
/Helvetica-BoldOblique exch definefont pop
/Times-Roman findfont
dup length dict begin
  {1 index /FID ne {def} {pop pop} ifelse} forall
  /Encoding WinAnsiEncoding def
  currentdict
end
/Times-Roman exch definefont pop
/Times-Italic findfont
dup length dict begin
  {1 index /FID ne {def} {pop pop} ifelse} forall
  /Encoding WinAnsiEncoding def
  currentdict
end
/Times-Italic exch definefont pop
/Times-Bold findfont
dup length dict begin
  {1 index /FID ne {def} {pop pop} ifelse} forall
  /Encoding WinAnsiEncoding def
  currentdict
end
/Times-Bold exch definefont pop
/Times-BoldItalic findfont
dup length dict begin
  {1 index /FID ne {def} {pop pop} ifelse} forall
  /Encoding WinAnsiEncoding def
  currentdict
end
/Times-BoldItalic exch definefont pop
/Courier findfont
dup length dict begin
  {1 index /FID ne {def} {pop pop} ifelse} forall
  /Encoding WinAnsiEncoding def
  currentdict
end
/Courier exch definefont pop
%FOPEndFontReencode
%%EndProlog
%%Page: 1 1
%%PageBoundingBox: 0 0 420 315
%%BeginPageSetup
[1 0 0 -1 0 315] CT
%%EndPageSetup
GS
[0.6 0 0 0.6 0 0] CT
1 GC
N
0 0 700 525 re
f
GR
GS
[0.6 0 0 0.6 0 0] CT
1 GC
N
0 0 700 525 re
f
GR
GS
[0.6 0 0 0.6 0 0] CT
1 GC
N
112 188 M
634 188 L
634 53 L
112 53 L
cp
f
GR
GS
[0.6 0 0 0.6 0 0] CT
0.149 GC
2 setlinecap
1 LJ
0.833 LW
N
112 188 M
634 188 L
S
GR
GS
[0.6 0 0 0.6 0 0] CT
0.149 GC
2 setlinecap
1 LJ
0.833 LW
N
112 53 M
634 53 L
S
GR
GS
[0.6 0 0 0.6 0 0] CT
0.149 GC
2 setlinecap
1 LJ
0.833 LW
N
229.162 188 M
229.162 182.78 L
S
GR
GS
[0.6 0 0 0.6 0 0] CT
0.149 GC
2 setlinecap
1 LJ
0.833 LW
N
363.214 188 M
363.214 182.78 L
S
GR
GS
[0.6 0 0 0.6 0 0] CT
0.149 GC
2 setlinecap
1 LJ
0.833 LW
N
497.267 188 M
497.267 182.78 L
S
GR
GS
[0.6 0 0 0.6 0 0] CT
0.149 GC
2 setlinecap
1 LJ
0.833 LW
N
631.319 188 M
631.319 182.78 L
S
GR
GS
[0.6 0 0 0.6 0 0] CT
0.149 GC
2 setlinecap
1 LJ
0.833 LW
N
229.162 53 M
229.162 58.22 L
S
GR
GS
[0.6 0 0 0.6 0 0] CT
0.149 GC
2 setlinecap
1 LJ
0.833 LW
N
363.214 53 M
363.214 58.22 L
S
GR
GS
[0.6 0 0 0.6 0 0] CT
0.149 GC
2 setlinecap
1 LJ
0.833 LW
N
497.267 53 M
497.267 58.22 L
S
GR
GS
[0.6 0 0 0.6 0 0] CT
0.149 GC
2 setlinecap
1 LJ
0.833 LW
N
631.319 53 M
631.319 58.22 L
S
GR
GS
[0.6 0 0 0.6 137.49707 117.8] CT
0.149 GC
/Helvetica-Bold 25 F
GS
[1 0 0 1 0 0] CT
-17.5 26 moveto 
1 -1 scale
(0.5) t 
GR
GR
GS
[0.6 0 0 0.6 217.9285 117.8] CT
0.149 GC
/Helvetica-Bold 25 F
GS
[1 0 0 1 0 0] CT
-7 26 moveto 
1 -1 scale
(1) t 
GR
GR
GS
[0.6 0 0 0.6 298.35994 117.8] CT
0.149 GC
/Helvetica-Bold 25 F
GS
[1 0 0 1 0 0] CT
-17.5 26 moveto 
1 -1 scale
(1.5) t 
GR
GR
GS
[0.6 0 0 0.6 378.79138 117.8] CT
0.149 GC
/Helvetica-Bold 25 F
GS
[1 0 0 1 0 0] CT
-7 26 moveto 
1 -1 scale
(2) t 
GR
GR
GS
[0.6 0 0 0.6 223.80015 138] CT
0.149 GC
N
-47.631 23.412 M
-49.209 23.412 -49.92 22.248 QT
-50.631 21.084 -50.631 19.412 QT
-50.631 18.303 -50.428 17.241 QT
-50.225 16.178 -49.826 15.092 QT
-49.428 14.006 -48.904 13.053 QT
-48.381 12.1 -47.74 11.209 QT
-47.615 11.022 -47.412 11.022 QT
-47.24 11.022 -47.131 11.131 QT
-47.021 11.241 -47.021 11.397 QT
-47.021 11.553 -47.1 11.662 QT
-49.646 15.178 -49.646 18.147 QT
-49.646 19.428 -49.053 20.358 QT
-48.459 21.287 -47.24 21.287 QT
-46.193 21.287 -45.295 20.67 QT
-44.396 20.053 -43.74 19.1 QT
-43.74 18.6 -43.576 17.561 QT
-43.412 16.522 -43.045 15.709 QT
-42.678 14.897 -42.178 14.897 QT
-41.537 14.897 -41.537 15.647 QT
-41.537 16.084 -41.717 16.748 QT
-41.896 17.412 -42.123 17.983 QT
-42.35 18.553 -42.678 19.287 QT
-42.35 21.287 -40.678 21.287 QT
-39.709 21.287 -38.732 20.725 QT
-37.756 20.162 -37.006 19.248 QT
-36.256 18.334 -35.826 17.287 QT
-35.396 16.241 -35.396 15.287 QT
-35.396 14.444 -35.662 13.975 QT
-35.928 13.506 -36.365 12.983 QT
-36.803 12.459 -36.803 12.147 QT
-36.803 11.6 -36.334 11.147 QT
-35.865 10.694 -35.334 10.694 QT
-34.662 10.694 -34.373 11.319 QT
-34.084 11.944 -34.084 12.741 QT
-34.084 14.022 -34.592 15.975 QT
-35.1 17.928 -35.756 19.225 QT
-36.662 20.991 -38.021 22.201 QT
-39.381 23.412 -41.084 23.412 QT
-42.162 23.412 -42.826 22.764 QT
-43.49 22.116 -43.678 20.991 QT
-44.459 22.1 -45.459 22.756 QT
-46.459 23.412 -47.631 23.412 QT
cp
f
GR
GS
[0.6 0 0 0.6 223.80015 138] CT
0.149 GC
N
-29.605 30.1 M
-29.605 2.1 L
-25.777 2.1 L
-25.777 3.225 L
-28.48 3.225 L
-28.48 28.975 L
-25.777 28.975 L
-25.777 30.1 L
-29.605 30.1 L
cp
f
GR
GS
[0.6 0 0 0.6 223.80015 138] CT
0.149 GC
N
-23.122 22.616 M
-23.122 22.459 -23.091 22.381 QT
-20.997 14.022 L
-20.794 13.241 -20.794 12.647 QT
-20.794 11.444 -21.607 11.444 QT
-22.482 11.444 -22.911 12.491 QT
-23.341 13.537 -23.732 15.147 QT
-23.732 15.225 -23.817 15.272 QT
-23.903 15.319 -23.966 15.319 QT
-24.294 15.319 L
-24.388 15.319 -24.458 15.217 QT
-24.528 15.116 -24.528 15.037 QT
-24.232 13.819 -23.95 12.967 QT
-23.669 12.116 -23.075 11.42 QT
-22.482 10.725 -21.591 10.725 QT
-20.622 10.725 -19.888 11.287 QT
-19.153 11.85 -18.982 12.756 QT
-18.263 11.834 -17.357 11.28 QT
-16.45 10.725 -15.372 10.725 QT
-14.482 10.725 -13.802 11.248 QT
-13.122 11.772 -13.122 12.647 QT
-13.122 13.366 -13.567 13.889 QT
-14.013 14.412 -14.747 14.412 QT
-15.2 14.412 -15.505 14.131 QT
-15.81 13.85 -15.81 13.412 QT
-15.81 12.787 -15.364 12.303 QT
-14.919 11.819 -14.325 11.819 QT
-14.778 11.444 -15.419 11.444 QT
-16.622 11.444 -17.513 12.303 QT
-18.403 13.162 -19.107 14.475 QT
-21.107 22.491 L
-21.2 22.866 -21.536 23.139 QT
-21.872 23.412 -22.278 23.412 QT
-22.622 23.412 -22.872 23.194 QT
-23.122 22.975 -23.122 22.616 QT
cp
f
GR
GS
[0.6 0 0 0.6 223.80015 138] CT
0.149 GC
N
-7.233 23.412 M
-8.998 23.412 -10.022 22.076 QT
-11.045 20.741 -11.045 18.928 QT
-11.045 17.131 -10.115 15.209 QT
-9.186 13.287 -7.608 12.006 QT
-6.03 10.725 -4.201 10.725 QT
-3.373 10.725 -2.717 11.178 QT
-2.061 11.631 -1.686 12.412 QT
-1.373 11.287 -0.451 11.287 QT
-0.108 11.287 0.135 11.498 QT
0.377 11.709 0.377 12.069 QT
0.377 12.147 0.369 12.186 QT
0.361 12.225 0.345 12.287 QT
-1.608 20.1 L
-1.795 20.944 -1.795 21.475 QT
-1.795 22.678 -0.998 22.678 QT
-0.123 22.678 0.338 21.561 QT
0.799 20.444 1.111 18.991 QT
1.174 18.819 1.33 18.819 QT
1.674 18.819 L
1.783 18.819 1.853 18.912 QT
1.924 19.006 1.924 19.1 QT
1.424 21.053 0.845 22.233 QT
0.267 23.412 -1.045 23.412 QT
-1.983 23.412 -2.709 22.858 QT
-3.436 22.303 -3.623 21.397 QT
-5.42 23.412 -7.233 23.412 QT
cp
-7.217 22.678 M
-6.201 22.678 -5.248 21.92 QT
-4.295 21.162 -3.623 20.131 QT
-3.592 20.1 -3.592 20.053 QT
-2.092 13.959 L
-2.061 13.881 L
-2.217 12.881 -2.772 12.162 QT
-3.326 11.444 -4.28 11.444 QT
-5.217 11.444 -6.03 12.217 QT
-6.842 12.991 -7.405 14.053 QT
-7.951 15.162 -8.451 17.123 QT
-8.951 19.084 -8.951 20.162 QT
-8.951 21.131 -8.53 21.905 QT
-8.108 22.678 -7.217 22.678 QT
cp
f
GR
GS
[0.6 0 0 0.6 223.80015 138] CT
0.149 GC
N
7.304 23.412 M
5.538 23.412 4.514 22.076 QT
3.491 20.741 3.491 18.928 QT
3.491 17.131 4.421 15.209 QT
5.35 13.287 6.929 12.006 QT
8.507 10.725 10.335 10.725 QT
11.147 10.725 11.811 11.186 QT
12.475 11.647 12.85 12.412 QT
14.413 6.162 L
14.522 5.678 14.554 5.412 QT
14.554 4.959 12.741 4.959 QT
12.444 4.959 12.444 4.584 QT
12.46 4.522 12.507 4.342 QT
12.554 4.162 12.632 4.069 QT
12.71 3.975 12.85 3.975 QT
16.616 3.678 L
16.96 3.678 16.96 4.022 QT
12.929 20.131 L
12.741 20.6 12.741 21.475 QT
12.741 22.678 13.538 22.678 QT
14.413 22.678 14.874 21.561 QT
15.335 20.444 15.647 18.991 QT
15.71 18.819 15.866 18.819 QT
16.21 18.819 L
16.319 18.819 16.389 18.912 QT
16.46 19.006 16.46 19.1 QT
15.96 21.053 15.382 22.233 QT
14.804 23.412 13.491 23.412 QT
12.554 23.412 11.827 22.858 QT
11.1 22.303 10.913 21.397 QT
9.116 23.412 7.304 23.412 QT
cp
7.319 22.678 M
8.335 22.678 9.288 21.92 QT
10.241 21.162 10.913 20.131 QT
10.944 20.1 10.944 20.022 QT
12.475 13.85 L
12.319 12.866 11.757 12.155 QT
11.194 11.444 10.257 11.444 QT
9.319 11.444 8.507 12.217 QT
7.694 12.991 7.132 14.053 QT
6.585 15.162 6.085 17.123 QT
5.585 19.084 5.585 20.162 QT
5.585 21.131 6.007 21.905 QT
6.429 22.678 7.319 22.678 QT
cp
f
GR
GS
[0.6 0 0 0.6 223.80015 138] CT
0.149 GC
N
18.32 29.537 M
18.32 29.459 18.336 29.428 QT
28.07 2.444 L
28.133 2.272 28.265 2.186 QT
28.398 2.1 28.586 2.1 QT
28.836 2.1 28.992 2.248 QT
29.148 2.397 29.148 2.662 QT
29.148 2.772 L
19.414 29.756 L
19.242 30.1 18.883 30.1 QT
18.648 30.1 18.484 29.936 QT
18.32 29.772 18.32 29.537 QT
cp
f
GR
GS
[0.6 0 0 0.6 223.80015 138] CT
0.149 GC
N
32.929 21.397 M
33.679 22.678 35.945 22.678 QT
36.929 22.678 37.82 22.342 QT
38.711 22.006 39.289 21.334 QT
39.867 20.662 39.867 19.709 QT
39.867 18.991 39.351 18.522 QT
38.836 18.053 38.086 17.897 QT
36.57 17.584 L
35.523 17.334 34.851 16.623 QT
34.179 15.912 34.179 14.897 QT
34.179 13.647 34.859 12.694 QT
35.539 11.741 36.648 11.233 QT
37.758 10.725 38.945 10.725 QT
40.211 10.725 41.219 11.334 QT
42.226 11.944 42.226 13.131 QT
42.226 13.772 41.859 14.264 QT
41.492 14.756 40.851 14.756 QT
40.492 14.756 40.226 14.522 QT
39.961 14.287 39.961 13.912 QT
39.961 13.584 40.14 13.28 QT
40.32 12.975 40.633 12.787 QT
40.945 12.6 41.273 12.6 QT
41.023 11.991 40.344 11.717 QT
39.664 11.444 38.883 11.444 QT
38.179 11.444 37.469 11.733 QT
36.758 12.022 36.328 12.576 QT
35.898 13.131 35.898 13.881 QT
35.898 14.397 36.25 14.78 QT
36.601 15.162 37.117 15.319 QT
38.758 15.647 L
39.523 15.819 40.179 16.233 QT
40.836 16.647 41.211 17.28 QT
41.586 17.912 41.586 18.741 QT
41.586 19.772 41 20.787 QT
40.414 21.803 39.57 22.397 QT
38.086 23.412 35.914 23.412 QT
34.429 23.412 33.187 22.733 QT
31.945 22.053 31.945 20.694 QT
31.945 19.928 32.39 19.358 QT
32.836 18.787 33.601 18.787 QT
34.054 18.787 34.359 19.061 QT
34.664 19.334 34.664 19.787 QT
34.664 20.428 34.187 20.912 QT
33.711 21.397 33.07 21.397 QT
32.929 21.397 L
cp
f
GR
GS
[0.6 0 0 0.6 223.80015 138] CT
0.149 GC
N
43.992 30.1 M
43.992 28.975 L
46.726 28.975 L
46.726 3.225 L
43.992 3.225 L
43.992 2.1 L
47.836 2.1 L
47.836 30.1 L
43.992 30.1 L
cp
f
GR
GS
[0.6 0 0 0.6 0 0] CT
0.149 GC
2 setlinecap
1 LJ
0.833 LW
N
112 188 M
112 53 L
S
GR
GS
[0.6 0 0 0.6 0 0] CT
0.149 GC
2 setlinecap
1 LJ
0.833 LW
N
634 188 M
634 53 L
S
GR
GS
[0.6 0 0 0.6 0 0] CT
0.149 GC
2 setlinecap
1 LJ
0.833 LW
N
112 188 M
117.22 188 L
S
GR
GS
[0.6 0 0 0.6 0 0] CT
0.149 GC
2 setlinecap
1 LJ
0.833 LW
N
112 120.5 M
117.22 120.5 L
S
GR
GS
[0.6 0 0 0.6 0 0] CT
0.149 GC
2 setlinecap
1 LJ
0.833 LW
N
112 53 M
117.22 53 L
S
GR
GS
[0.6 0 0 0.6 0 0] CT
0.149 GC
2 setlinecap
1 LJ
0.833 LW
N
634 188 M
628.78 188 L
S
GR
GS
[0.6 0 0 0.6 0 0] CT
0.149 GC
2 setlinecap
1 LJ
0.833 LW
N
634 120.5 M
628.78 120.5 L
S
GR
GS
[0.6 0 0 0.6 0 0] CT
0.149 GC
2 setlinecap
1 LJ
0.833 LW
N
634 53 M
628.78 53 L
S
GR
GS
[0.6 0 0 0.6 62.2 112.8] CT
0.149 GC
/Helvetica-Bold 25 F
GS
[1 0 0 1 0 0] CT
-64 10 moveto 
1 -1 scale
(-2000) t 
GR
GR
GS
[0.6 0 0 0.6 62.2 72.3] CT
0.149 GC
/Helvetica-Bold 25 F
GS
[1 0 0 1 0 0] CT
-14 10 moveto 
1 -1 scale
(0) t 
GR
GR
GS
[0.6 0 0 0.6 62.2 31.8] CT
0.149 GC
/Helvetica-Bold 25 F
GS
[1 0 0 1 0 0] CT
-56 10 moveto 
1 -1 scale
(2000) t 
GR
GR
GS
[0 -0.6 0.6 0 16.8 105.6] CT
0.149 GC
/Helvetica-Bold 27.5 F
GS
[1 0 0 1 0 0] CT
0 0 moveto 
1 -1 scale
(QTF+/) t 
GR
GR
GS
[0 -0.6 0.6 0 16.8 58.2] CT
0.149 GC
N
1.781 5.266 M
1.781 5.094 1.813 5.047 QT
4.578 -6.141 L
4.984 -7.641 5.945 -9.086 QT
6.906 -10.531 8.273 -11.453 QT
9.641 -12.375 11.156 -12.375 QT
13.375 -12.375 14.281 -11.742 QT
15.188 -11.109 15.648 -10.07 QT
16.109 -9.031 16.109 -7.813 QT
16.109 -6.453 15.555 -5.008 QT
15 -3.563 14.023 -2.359 QT
13.047 -1.156 11.773 -0.422 QT
10.5 0.313 8.109 0.313 QT
7.297 0.313 6.57 -0.172 QT
5.844 -0.656 5.844 -0.656 QT
4.781 5.156 L
4.688 5.547 4.359 5.797 QT
4.031 6.047 2.625 6.047 QT
2.281 6.047 2.031 5.836 QT
1.781 5.625 1.781 5.266 QT
cp
8.203 -0.422 M
9.656 -0.422 10.758 -1.945 QT
11.859 -3.469 12.438 -5.531 QT
13.016 -7.594 13.016 -9.016 QT
13.016 -10.078 12.555 -10.867 QT
12.094 -11.656 11.109 -11.656 QT
10.891 -11.656 9.961 -10.727 QT
9.031 -9.797 8.469 -8.555 QT
7.906 -7.313 7.547 -5.969 QT
6.781 -2.828 L
6.969 -1.813 7.586 -1.117 QT
8.203 -0.422 8.203 -0.422 QT
cp
f
GR
GS
[0 -0.6 0.6 0 16.8 48.6] CT
0.149 GC
/Helvetica-Bold 27.5 F
GS
[1 0 0 1 0 0] CT
0 0 moveto 
1 -1 scale
(g) t 
GR
GR
GS
[0.6 0 0 0.6 168.6 25.8] CT
/Helvetica-Bold 25 F
GS
[1 0 0 1 0 0] CT
0 0 moveto 
1 -1 scale
(QTF+ for ) t 
GR
GR
GS
[0.6 0 0 0.6 235.8 25.8] CT
N
1.359 0 M
1.141 0 1.141 -0.203 QT
1.156 -0.219 1.164 -0.234 QT
1.172 -0.25 1.172 -0.281 QT
9.781 -17.625 L
9.891 -17.891 10.234 -17.891 QT
10.578 -17.891 L
11.906 -17.891 12.016 -17.625 QT
20.625 -0.281 L
20.641 -0.25 20.648 -0.234 QT
20.656 -0.219 20.656 -0.203 QT
20.656 0 19.453 0 QT
1.359 0 L
cp
4 -2 M
16.172 -2 L
9.984 -14.453 L
4 -2 L
cp
f
GR
GS
[0.6 0 0 0.6 249.6 25.8] CT
/Helvetica-Bold 25 F
GS
[1 0 0 1 0 0] CT
0 0 moveto 
1 -1 scale
(w=0) t 
GR
GR
GS
[0.6 0 0 0.6 0 0] CT
0 0 1 RC
1 LJ
3.333 LW
N
112 120.5 M
128.891 120.495 L
145.513 120.478 L
162.404 120.4 L
179.294 117.504 L
196.185 123.975 L
213.076 123.377 L
229.698 123.089 L
246.589 122.826 L
263.479 121.952 L
280.37 120.809 L
297.26 119.914 L
313.883 119.002 L
330.773 118.464 L
347.664 117.383 L
364.555 116.029 L
381.445 114.517 L
398.068 112.538 L
414.958 109.536 L
431.849 106.03 L
448.74 101.47 L
465.63 95.878 L
482.253 89.495 L
499.143 82.263 L
516.034 75.225 L
532.924 68.572 L
549.815 63.064 L
566.438 60.292 L
583.328 59.731 L
600.219 64.467 L
617.109 73.275 L
634 85.17 L
S
GR
GS
[0.6 0 0 0.6 0 0] CT
0 0 1 RC
[12 3 6 3] 0 setdash
2 LJ
3.333 LW
N
112 124.92 M
128.891 122.775 L
145.513 123.673 L
162.404 123.427 L
179.294 147.065 L
196.185 103.41 L
213.076 110.93 L
229.698 113.405 L
246.589 115.213 L
263.479 116.786 L
280.37 117.414 L
297.26 117.459 L
313.883 116.798 L
330.773 115.627 L
347.664 114.2 L
364.555 111.654 L
381.445 108.805 L
398.068 105.644 L
414.958 102.657 L
431.849 99.45 L
448.74 97.546 L
465.63 96.145 L
482.253 96.778 L
499.143 98.585 L
516.034 102.926 L
532.924 109.045 L
549.815 118.462 L
566.438 128.903 L
583.328 141.875 L
600.219 156.501 L
617.109 170.135 L
634 182.507 L
S
GR
GS
[0.6 0 0 0.6 0 0] CT
1 0 0 RC
[12 12] 0 setdash
2 LJ
3.333 LW
N
112 120.502 M
128.891 120.495 L
145.513 120.478 L
162.404 120.276 L
179.294 115.328 L
196.185 127.147 L
213.076 126.872 L
229.698 126.311 L
246.589 125.577 L
263.479 124.717 L
280.37 122.409 L
297.26 121.213 L
313.883 121.707 L
330.773 117.488 L
347.664 117.76 L
364.555 120.466 L
381.445 112.017 L
398.068 117.13 L
414.958 109.227 L
431.849 107.804 L
448.74 104.545 L
465.63 94.083 L
482.253 93.008 L
499.143 81.126 L
516.034 78.58 L
532.924 70.29 L
549.815 63.539 L
566.438 73.95 L
583.328 60.676 L
600.219 73.985 L
617.109 83.428 L
634 91.645 L
S
GR
GS
[0.6 0 0 0.6 0 0] CT
1 0 0 RC
[3 3] 0 setdash
2 LJ
3.333 LW
N
112 124.913 M
128.891 122.701 L
145.513 122.208 L
162.404 125.312 L
179.294 159.014 L
196.185 95.117 L
213.076 106.27 L
229.698 110.524 L
246.589 112.859 L
263.479 115.187 L
280.37 116.568 L
297.26 115.498 L
313.883 116.428 L
330.773 116.403 L
347.664 110.508 L
364.555 113.246 L
381.445 109.855 L
398.068 102.802 L
414.958 108.552 L
431.849 96.611 L
448.74 103.387 L
465.63 95.077 L
482.253 103.731 L
499.143 98.936 L
516.034 110.672 L
532.924 107.889 L
549.815 123.724 L
566.438 132.133 L
583.328 148.096 L
600.219 163.411 L
617.109 166.221 L
634 175.2 L
S
GR
GS
[0.6 0 0 0.6 0 0] CT
1 GC
N
112 437 M
634 437 L
634 302 L
112 302 L
cp
f
GR
GS
[0.6 0 0 0.6 0 0] CT
0.149 GC
2 setlinecap
1 LJ
0.833 LW
N
112 437 M
634 437 L
S
GR
GS
[0.6 0 0 0.6 0 0] CT
0.149 GC
2 setlinecap
1 LJ
0.833 LW
N
112 302 M
634 302 L
S
GR
GS
[0.6 0 0 0.6 0 0] CT
0.149 GC
2 setlinecap
1 LJ
0.833 LW
N
223.051 437 M
223.051 431.78 L
S
GR
GS
[0.6 0 0 0.6 0 0] CT
0.149 GC
2 setlinecap
1 LJ
0.833 LW
N
371.515 437 M
371.515 431.78 L
S
GR
GS
[0.6 0 0 0.6 0 0] CT
0.149 GC
2 setlinecap
1 LJ
0.833 LW
N
519.979 437 M
519.979 431.78 L
S
GR
GS
[0.6 0 0 0.6 0 0] CT
0.149 GC
2 setlinecap
1 LJ
0.833 LW
N
223.051 302 M
223.051 307.22 L
S
GR
GS
[0.6 0 0 0.6 0 0] CT
0.149 GC
2 setlinecap
1 LJ
0.833 LW
N
371.515 302 M
371.515 307.22 L
S
GR
GS
[0.6 0 0 0.6 0 0] CT
0.149 GC
2 setlinecap
1 LJ
0.833 LW
N
519.979 302 M
519.979 307.22 L
S
GR
GS
[0.6 0 0 0.6 133.83072 267.20001] CT
0.149 GC
/Helvetica-Bold 25 F
GS
[1 0 0 1 0 0] CT
-17.5 26 moveto 
1 -1 scale
(0.5) t 
GR
GR
GS
[0.6 0 0 0.6 222.90921 267.20001] CT
0.149 GC
/Helvetica-Bold 25 F
GS
[1 0 0 1 0 0] CT
-7 26 moveto 
1 -1 scale
(1) t 
GR
GR
GS
[0.6 0 0 0.6 311.9877 267.20001] CT
0.149 GC
/Helvetica-Bold 25 F
GS
[1 0 0 1 0 0] CT
-17.5 26 moveto 
1 -1 scale
(1.5) t 
GR
GR
GS
[0.6 0 0 0.6 223.80015 287.4] CT
0.149 GC
N
/f-1480514271{-47.631 23.412 M
-49.209 23.412 -49.92 22.248 QT
-50.631 21.084 -50.631 19.412 QT
-50.631 18.303 -50.428 17.241 QT
-50.225 16.178 -49.826 15.092 QT
-49.428 14.006 -48.904 13.053 QT
-48.381 12.1 -47.74 11.209 QT
-47.615 11.022 -47.412 11.022 QT
-47.24 11.022 -47.131 11.131 QT
-47.021 11.241 -47.021 11.397 QT
-47.021 11.553 -47.1 11.662 QT
-49.646 15.178 -49.646 18.147 QT
-49.646 19.428 -49.053 20.358 QT
-48.459 21.287 -47.24 21.287 QT
-46.193 21.287 -45.295 20.67 QT
-44.396 20.053 -43.74 19.1 QT
-43.74 18.6 -43.576 17.561 QT
-43.412 16.522 -43.045 15.709 QT
-42.678 14.897 -42.178 14.897 QT
-41.537 14.897 -41.537 15.647 QT
-41.537 16.084 -41.717 16.748 QT
-41.896 17.412 -42.123 17.983 QT
-42.35 18.553 -42.678 19.287 QT
-42.35 21.287 -40.678 21.287 QT
-39.709 21.287 -38.732 20.725 QT
-37.756 20.162 -37.006 19.248 QT
-36.256 18.334 -35.826 17.287 QT
-35.396 16.241 -35.396 15.287 QT
-35.396 14.444 -35.662 13.975 QT
-35.928 13.506 -36.365 12.983 QT
-36.803 12.459 -36.803 12.147 QT
-36.803 11.6 -36.334 11.147 QT
-35.865 10.694 -35.334 10.694 QT
-34.662 10.694 -34.373 11.319 QT
-34.084 11.944 -34.084 12.741 QT
-34.084 14.022 -34.592 15.975 QT
-35.1 17.928 -35.756 19.225 QT
-36.662 20.991 -38.021 22.201 QT
-39.381 23.412 -41.084 23.412 QT
-42.162 23.412 -42.826 22.764 QT
-43.49 22.116 -43.678 20.991 QT
-44.459 22.1 -45.459 22.756 QT
-46.459 23.412 -47.631 23.412 QT
cp}def
f-1480514271
f
GR
GS
[0.6 0 0 0.6 223.80015 287.4] CT
0.149 GC
N
/f-911220341{-29.605 30.1 M
-29.605 2.1 L
-25.777 2.1 L
-25.777 3.225 L
-28.48 3.225 L
-28.48 28.975 L
-25.777 28.975 L
-25.777 30.1 L
-29.605 30.1 L
cp}def
f-911220341
f
GR
GS
[0.6 0 0 0.6 223.80015 287.4] CT
0.149 GC
N
/f-552804661{-23.122 22.616 M
-23.122 22.459 -23.091 22.381 QT
-20.997 14.022 L
-20.794 13.241 -20.794 12.647 QT
-20.794 11.444 -21.607 11.444 QT
-22.482 11.444 -22.911 12.491 QT
-23.341 13.537 -23.732 15.147 QT
-23.732 15.225 -23.817 15.272 QT
-23.903 15.319 -23.966 15.319 QT
-24.294 15.319 L
-24.388 15.319 -24.458 15.217 QT
-24.528 15.116 -24.528 15.037 QT
-24.232 13.819 -23.95 12.967 QT
-23.669 12.116 -23.075 11.42 QT
-22.482 10.725 -21.591 10.725 QT
-20.622 10.725 -19.888 11.287 QT
-19.153 11.85 -18.982 12.756 QT
-18.263 11.834 -17.357 11.28 QT
-16.45 10.725 -15.372 10.725 QT
-14.482 10.725 -13.802 11.248 QT
-13.122 11.772 -13.122 12.647 QT
-13.122 13.366 -13.567 13.889 QT
-14.013 14.412 -14.747 14.412 QT
-15.2 14.412 -15.505 14.131 QT
-15.81 13.85 -15.81 13.412 QT
-15.81 12.787 -15.364 12.303 QT
-14.919 11.819 -14.325 11.819 QT
-14.778 11.444 -15.419 11.444 QT
-16.622 11.444 -17.513 12.303 QT
-18.403 13.162 -19.107 14.475 QT
-21.107 22.491 L
-21.2 22.866 -21.536 23.139 QT
-21.872 23.412 -22.278 23.412 QT
-22.622 23.412 -22.872 23.194 QT
-23.122 22.975 -23.122 22.616 QT
cp}def
f-552804661
f
GR
GS
[0.6 0 0 0.6 223.80015 287.4] CT
0.149 GC
N
/f663259062{-7.233 23.412 M
-8.998 23.412 -10.022 22.076 QT
-11.045 20.741 -11.045 18.928 QT
-11.045 17.131 -10.115 15.209 QT
-9.186 13.287 -7.608 12.006 QT
-6.03 10.725 -4.201 10.725 QT
-3.373 10.725 -2.717 11.178 QT
-2.061 11.631 -1.686 12.412 QT
-1.373 11.287 -0.451 11.287 QT
-0.108 11.287 0.135 11.498 QT
0.377 11.709 0.377 12.069 QT
0.377 12.147 0.369 12.186 QT
0.361 12.225 0.345 12.287 QT
-1.608 20.1 L
-1.795 20.944 -1.795 21.475 QT
-1.795 22.678 -0.998 22.678 QT
-0.123 22.678 0.338 21.561 QT
0.799 20.444 1.111 18.991 QT
1.174 18.819 1.33 18.819 QT
1.674 18.819 L
1.783 18.819 1.853 18.912 QT
1.924 19.006 1.924 19.1 QT
1.424 21.053 0.845 22.233 QT
0.267 23.412 -1.045 23.412 QT
-1.983 23.412 -2.709 22.858 QT
-3.436 22.303 -3.623 21.397 QT
-5.42 23.412 -7.233 23.412 QT
cp
-7.217 22.678 M
-6.201 22.678 -5.248 21.92 QT
-4.295 21.162 -3.623 20.131 QT
-3.592 20.1 -3.592 20.053 QT
-2.092 13.959 L
-2.061 13.881 L
-2.217 12.881 -2.772 12.162 QT
-3.326 11.444 -4.28 11.444 QT
-5.217 11.444 -6.03 12.217 QT
-6.842 12.991 -7.405 14.053 QT
-7.951 15.162 -8.451 17.123 QT
-8.951 19.084 -8.951 20.162 QT
-8.951 21.131 -8.53 21.905 QT
-8.108 22.678 -7.217 22.678 QT
cp}def
f663259062
f
GR
GS
[0.6 0 0 0.6 223.80015 287.4] CT
0.149 GC
N
/f-1854391993{7.304 23.412 M
5.538 23.412 4.514 22.076 QT
3.491 20.741 3.491 18.928 QT
3.491 17.131 4.421 15.209 QT
5.35 13.287 6.929 12.006 QT
8.507 10.725 10.335 10.725 QT
11.147 10.725 11.811 11.186 QT
12.475 11.647 12.85 12.412 QT
14.413 6.162 L
14.522 5.678 14.554 5.412 QT
14.554 4.959 12.741 4.959 QT
12.444 4.959 12.444 4.584 QT
12.46 4.522 12.507 4.342 QT
12.554 4.162 12.632 4.069 QT
12.71 3.975 12.85 3.975 QT
16.616 3.678 L
16.96 3.678 16.96 4.022 QT
12.929 20.131 L
12.741 20.6 12.741 21.475 QT
12.741 22.678 13.538 22.678 QT
14.413 22.678 14.874 21.561 QT
15.335 20.444 15.647 18.991 QT
15.71 18.819 15.866 18.819 QT
16.21 18.819 L
16.319 18.819 16.389 18.912 QT
16.46 19.006 16.46 19.1 QT
15.96 21.053 15.382 22.233 QT
14.804 23.412 13.491 23.412 QT
12.554 23.412 11.827 22.858 QT
11.1 22.303 10.913 21.397 QT
9.116 23.412 7.304 23.412 QT
cp
7.319 22.678 M
8.335 22.678 9.288 21.92 QT
10.241 21.162 10.913 20.131 QT
10.944 20.1 10.944 20.022 QT
12.475 13.85 L
12.319 12.866 11.757 12.155 QT
11.194 11.444 10.257 11.444 QT
9.319 11.444 8.507 12.217 QT
7.694 12.991 7.132 14.053 QT
6.585 15.162 6.085 17.123 QT
5.585 19.084 5.585 20.162 QT
5.585 21.131 6.007 21.905 QT
6.429 22.678 7.319 22.678 QT
cp}def
f-1854391993
f
GR
GS
[0.6 0 0 0.6 223.80015 287.4] CT
0.149 GC
N
/f1477946294{18.32 29.537 M
18.32 29.459 18.336 29.428 QT
28.07 2.444 L
28.133 2.272 28.265 2.186 QT
28.398 2.1 28.586 2.1 QT
28.836 2.1 28.992 2.248 QT
29.148 2.397 29.148 2.662 QT
29.148 2.772 L
19.414 29.756 L
19.242 30.1 18.883 30.1 QT
18.648 30.1 18.484 29.936 QT
18.32 29.772 18.32 29.537 QT
cp}def
f1477946294
f
GR
GS
[0.6 0 0 0.6 223.80015 287.4] CT
0.149 GC
N
/f-530401850{32.929 21.397 M
33.679 22.678 35.945 22.678 QT
36.929 22.678 37.82 22.342 QT
38.711 22.006 39.289 21.334 QT
39.867 20.662 39.867 19.709 QT
39.867 18.991 39.351 18.522 QT
38.836 18.053 38.086 17.897 QT
36.57 17.584 L
35.523 17.334 34.851 16.623 QT
34.179 15.912 34.179 14.897 QT
34.179 13.647 34.859 12.694 QT
35.539 11.741 36.648 11.233 QT
37.758 10.725 38.945 10.725 QT
40.211 10.725 41.219 11.334 QT
42.226 11.944 42.226 13.131 QT
42.226 13.772 41.859 14.264 QT
41.492 14.756 40.851 14.756 QT
40.492 14.756 40.226 14.522 QT
39.961 14.287 39.961 13.912 QT
39.961 13.584 40.14 13.28 QT
40.32 12.975 40.633 12.787 QT
40.945 12.6 41.273 12.6 QT
41.023 11.991 40.344 11.717 QT
39.664 11.444 38.883 11.444 QT
38.179 11.444 37.469 11.733 QT
36.758 12.022 36.328 12.576 QT
35.898 13.131 35.898 13.881 QT
35.898 14.397 36.25 14.78 QT
36.601 15.162 37.117 15.319 QT
38.758 15.647 L
39.523 15.819 40.179 16.233 QT
40.836 16.647 41.211 17.28 QT
41.586 17.912 41.586 18.741 QT
41.586 19.772 41 20.787 QT
40.414 21.803 39.57 22.397 QT
38.086 23.412 35.914 23.412 QT
34.429 23.412 33.187 22.733 QT
31.945 22.053 31.945 20.694 QT
31.945 19.928 32.39 19.358 QT
32.836 18.787 33.601 18.787 QT
34.054 18.787 34.359 19.061 QT
34.664 19.334 34.664 19.787 QT
34.664 20.428 34.187 20.912 QT
33.711 21.397 33.07 21.397 QT
32.929 21.397 L
cp}def
f-530401850
f
GR
GS
[0.6 0 0 0.6 223.80015 287.4] CT
0.149 GC
N
/f-1848120821{43.992 30.1 M
43.992 28.975 L
46.726 28.975 L
46.726 3.225 L
43.992 3.225 L
43.992 2.1 L
47.836 2.1 L
47.836 30.1 L
43.992 30.1 L
cp}def
f-1848120821
f
GR
GS
[0.6 0 0 0.6 0 0] CT
0.149 GC
2 setlinecap
1 LJ
0.833 LW
N
112 437 M
112 302 L
S
GR
GS
[0.6 0 0 0.6 0 0] CT
0.149 GC
2 setlinecap
1 LJ
0.833 LW
N
634 437 M
634 302 L
S
GR
GS
[0.6 0 0 0.6 0 0] CT
0.149 GC
2 setlinecap
1 LJ
0.833 LW
N
112 435.371 M
117.22 435.371 L
S
GR
GS
[0.6 0 0 0.6 0 0] CT
0.149 GC
2 setlinecap
1 LJ
0.833 LW
N
112 378.653 M
117.22 378.653 L
S
GR
GS
[0.6 0 0 0.6 0 0] CT
0.149 GC
2 setlinecap
1 LJ
0.833 LW
N
112 321.936 M
117.22 321.936 L
S
GR
GS
[0.6 0 0 0.6 0 0] CT
0.149 GC
2 setlinecap
1 LJ
0.833 LW
N
634 435.371 M
628.78 435.371 L
S
GR
GS
[0.6 0 0 0.6 0 0] CT
0.149 GC
2 setlinecap
1 LJ
0.833 LW
N
634 378.653 M
628.78 378.653 L
S
GR
GS
[0.6 0 0 0.6 0 0] CT
0.149 GC
2 setlinecap
1 LJ
0.833 LW
N
634 321.936 M
628.78 321.936 L
S
GR
GS
[0.6 0 0 0.6 62.2 261.22231] CT
0.149 GC
/Helvetica-Bold 25 F
GS
[1 0 0 1 0 0] CT
-64 10 moveto 
1 -1 scale
(-1000) t 
GR
GR
GS
[0.6 0 0 0.6 62.2 227.19197] CT
0.149 GC
/Helvetica-Bold 25 F
GS
[1 0 0 1 0 0] CT
-14 10 moveto 
1 -1 scale
(0) t 
GR
GR
GS
[0.6 0 0 0.6 62.2 193.16162] CT
0.149 GC
/Helvetica-Bold 25 F
GS
[1 0 0 1 0 0] CT
-56 10 moveto 
1 -1 scale
(1000) t 
GR
GR
GS
[0 -0.6 0.6 0 16.8 255] CT
0.149 GC
/Helvetica-Bold 27.5 F
GS
[1 0 0 1 0 0] CT
0 0 moveto 
1 -1 scale
(QTF+/) t 
GR
GR
GS
[0 -0.6 0.6 0 16.8 207.6] CT
0.149 GC
N
/f-1302711506{1.781 5.266 M
1.781 5.094 1.813 5.047 QT
4.578 -6.141 L
4.984 -7.641 5.945 -9.086 QT
6.906 -10.531 8.273 -11.453 QT
9.641 -12.375 11.156 -12.375 QT
13.375 -12.375 14.281 -11.742 QT
15.188 -11.109 15.648 -10.07 QT
16.109 -9.031 16.109 -7.813 QT
16.109 -6.453 15.555 -5.008 QT
15 -3.563 14.023 -2.359 QT
13.047 -1.156 11.773 -0.422 QT
10.5 0.313 8.109 0.313 QT
7.297 0.313 6.57 -0.172 QT
5.844 -0.656 5.844 -0.656 QT
4.781 5.156 L
4.688 5.547 4.359 5.797 QT
4.031 6.047 2.625 6.047 QT
2.281 6.047 2.031 5.836 QT
1.781 5.625 1.781 5.266 QT
cp
8.203 -0.422 M
9.656 -0.422 10.758 -1.945 QT
11.859 -3.469 12.438 -5.531 QT
13.016 -7.594 13.016 -9.016 QT
13.016 -10.078 12.555 -10.867 QT
12.094 -11.656 11.109 -11.656 QT
10.891 -11.656 9.961 -10.727 QT
9.031 -9.797 8.469 -8.555 QT
7.906 -7.313 7.547 -5.969 QT
6.781 -2.828 L
6.969 -1.813 7.586 -1.117 QT
8.203 -0.422 8.203 -0.422 QT
cp}def
f-1302711506
f
GR
GS
[0 -0.6 0.6 0 16.8 198] CT
0.149 GC
/Helvetica-Bold 27.5 F
GS
[1 0 0 1 0 0] CT
0 0 moveto 
1 -1 scale
(g) t 
GR
GR
GS
[0.6 0 0 0.6 154.2 175.2] CT
/Helvetica-Bold 25 F
GS
[1 0 0 1 0 0] CT
0 0 moveto 
1 -1 scale
(QTF+ for ) t 
GR
GR
GS
[0.6 0 0 0.6 221.4 175.2] CT
N
/f737086292{1.359 0 M
1.141 0 1.141 -0.203 QT
1.156 -0.219 1.164 -0.234 QT
1.172 -0.25 1.172 -0.281 QT
9.781 -17.625 L
9.891 -17.891 10.234 -17.891 QT
10.578 -17.891 L
11.906 -17.891 12.016 -17.625 QT
20.625 -0.281 L
20.641 -0.25 20.648 -0.234 QT
20.656 -0.219 20.656 -0.203 QT
20.656 0 19.453 0 QT
1.359 0 L
cp
4 -2 M
16.172 -2 L
9.984 -14.453 L
4 -2 L
cp}def
f737086292
f
GR
GS
[0.6 0 0 0.6 235.2 175.2] CT
/Helvetica-Bold 25 F
GS
[1 0 0 1 0 0] CT
0 0 moveto 
1 -1 scale
(w=0.189) t 
GR
GR
GS
[0.6 0 0 0.6 0 0] CT
0 0 1 RC
1 LJ
3.333 LW
N
112 378.61 M
130.41 378.024 L
149.116 379.948 L
167.823 378.172 L
186.529 366.192 L
205.235 388.28 L
223.645 384.61 L
242.352 382.88 L
261.058 380.725 L
279.764 379.25 L
298.471 378.22 L
316.881 377.811 L
335.587 377.781 L
354.294 376.764 L
373 375.507 L
391.706 372.941 L
410.116 368.587 L
428.823 362.445 L
447.529 354.398 L
466.236 345.344 L
484.942 334.891 L
503.352 325.392 L
522.058 316.083 L
540.765 310.166 L
559.471 306.166 L
578.177 307.216 L
596.587 311.017 L
615.294 319.326 L
634 331.017 L
S
GR
GS
[0.6 0 0 0.6 0 0] CT
0 0 1 RC
[12 3 6 3] 0 setdash
2 LJ
3.333 LW
N
112 384.376 M
130.41 396.758 L
149.116 364.662 L
167.823 381.496 L
186.529 421.898 L
205.235 351.349 L
223.645 364.402 L
242.352 369.349 L
261.058 371.861 L
279.764 372.592 L
298.471 372.529 L
316.881 371.391 L
335.587 370.416 L
354.294 368.905 L
373 366.892 L
391.706 365.099 L
410.116 363.129 L
428.823 360.868 L
447.529 358.504 L
466.236 356.211 L
484.942 354.271 L
503.352 352.911 L
522.058 353.591 L
540.765 355.993 L
559.471 362.3 L
578.177 372.704 L
596.587 385.245 L
615.294 403.73 L
634 423.06 L
S
GR
GS
[0.6 0 0 0.6 0 0] CT
1 0 0 RC
[12 12] 0 setdash
2 LJ
3.333 LW
N
112 378.611 M
130.41 378.254 L
149.116 378.637 L
167.823 379.013 L
186.529 360.431 L
205.235 397.416 L
223.645 391.362 L
242.352 388.483 L
261.058 384.166 L
279.764 383.073 L
298.471 382.833 L
316.881 376.978 L
335.587 382.065 L
354.294 380.071 L
373 375.875 L
391.706 379.087 L
410.116 367.099 L
428.823 370.183 L
447.529 353.788 L
466.236 350.977 L
484.942 333.23 L
503.352 331.886 L
522.058 313.072 L
540.765 319.234 L
559.471 302 L
578.177 318.315 L
596.587 316.928 L
615.294 326.247 L
634 354.65 L
S
GR
GS
[0.6 0 0 0.6 0 0] CT
1 0 0 RC
[3 3] 0 setdash
2 LJ
3.333 LW
N
112 383.527 M
130.41 389.702 L
149.116 381.593 L
167.823 379.876 L
186.529 437 L
205.235 340.107 L
223.645 358.877 L
242.352 366.18 L
261.058 369.421 L
279.764 368.998 L
298.471 372.334 L
316.881 371.039 L
335.587 365.99 L
354.294 371.513 L
373 363.514 L
391.706 367.381 L
410.116 364.545 L
428.823 361.879 L
447.529 364.279 L
466.236 356.897 L
484.942 363.738 L
503.352 354.058 L
522.058 363.286 L
540.765 359.077 L
559.471 365.202 L
578.177 376.543 L
596.587 391.828 L
615.294 416.832 L
634 421.942 L
S
GR
%%Trailer
%%Pages: 1
%%EOF
